{"href": "https://api.spotify.com/v1/artists/6s22t5Y3prQHyaHWUN1R1C/albums?include_groups=album&offset=0&limit=5", "items": [{"album_group": "album", "album_type": "album", "artists": [{"external_urls": {"spotify": "https://open.spotify.com/artist/6s22t5Y3prQHyaHWUN1R1C"}, "href": "https://api.spotify.com/v1/artists/6s22t5Y3prQHyaHWUN1R1C", "id": "6s22t5Y3prQHyaHWUN1R1C", "name": "AJR", "type": "artist", "uri": "spotify:artist:6s22t5Y3prQHyaHWUN1R1C"}], "available_markets": ["AR", "AU", "AT", "BE", "BO", "BR", "BG", "CA", "CL", "CO", "CR", "CY", "CZ", "DK", "DO", "DE", "EC", "EE", "SV", "FI", "FR", "GR", "GT", "HN", "HK", "HU", "IS", "IE", "IT", "LV", "LT", "LU", "MY", "MT", "MX", "NL", "NZ", "NI", "NO", "PA", "PY", "PE", "PH", "PL", "PT", "SG", "SK", "ES", "SE", "CH", "TW", "TR", "UY", "US", "GB", "AD", "LI", "MC", "ID", "JP", "TH", "VN", "RO", "IL", "ZA", "SA", "AE", "BH", "QA", "OM", "KW", "EG", "MA", "DZ", "TN", "LB", "JO", "PS", "IN", "KZ", "MD", "UA", "AL", "BA", "HR", "ME", "MK", "RS", "SI", "KR", "BD", "PK", "LK", "GH", "KE", "NG", "TZ", "UG", "AG", "AM", "BS", "BB", "BZ", "BT", "BW", "BF", "CV", "CW", "DM", "FJ", "GM", "GE", "GD", "GW", "GY", "HT", "JM", "KI", "LS", "LR", "MW", "MV", "ML", "MH", "FM", "NA", "NR", "NE", "PW", "PG", "WS", "SM", "ST", "SN", "SC", "SL", "SB", "KN", "LC", "VC", "SR", "TL", "TO", "TT", "TV", "VU", "AZ", "BN", "BI", "KH", "CM", "TD", "KM", "GQ", "SZ", "GA", "GN", "KG", "LA", "MO", "MR", "MN", "NP", "RW", "TG", "UZ", "ZW", "BJ", "MG", "MU", "MZ", "AO", "CI", "DJ", "ZM", "CD", "CG", "IQ", "LY", "TJ", "VE", "ET", "XK"], "external_urls": {"spotify": "https://open.spotify.com/album/1bU12iHHt5ujHbuKcIGlpm"}, "href": "https://api.spotify.com/v1/albums/1bU12iHHt5ujHbuKcIGlpm", "id": "1bU12iHHt5ujHbuKcIGlpm", "images": [{"height": 640, "url": "https://i.scdn.co/image/ab67616d0000b27304a3ca0d3bf91c88f969f905", "width": 640}, {"height": 300, "url": "https://i.scdn.co/image/ab67616d00001e0204a3ca0d3bf91c88f969f905", "width": 300}, {"height": 64, "url": "https://i.scdn.co/image/ab67616d0000485104a3ca0d3bf91c88f969f905", "width": 64}], "name": "The Maybe Man", "release_date": "2023-11-10", "release_date_precision": "day", "total_tracks": 12, "type": "album", "uri": "spotify:album:1bU12iHHt5ujHbuKcIGlpm"}, {"album_group": "album", "album_type": "album", "artists": [{"external_urls": {"spotify": "https://open.spotify.com/artist/6s22t5Y3prQHyaHWUN1R1C"}, "href": "https://api.spotify.com/v1/artists/6s22t5Y3prQHyaHWUN1R1C", "id": "6s22t5Y3prQHyaHWUN1R1C", "name": "AJR", "type": "artist", "uri": "spotify:artist:6s22t5Y3prQHyaHWUN1R1C"}], "available_markets": ["CA", "US"], "external_urls": {"spotify": "https://open.spotify.com/album/0KC9H4iFOOWiKEa5IzKKOE"}, "href": "https://api.spotify.com/v1/albums/0KC9H4iFOOWiKEa5IzKKOE", "id": "0KC9H4iFOOWiKEa5IzKKOE", "images": [{"height": 640, "url": "https://i.scdn.co/image/ab67616d0000b2730b2dd5b222295ed11c07954c", "width": 640}, {"height": 300, "url": "https://i.scdn.co/image/ab67616d00001e020b2dd5b222295ed11c07954c", "width": 300}, {"height": 64, "url": "https://i.scdn.co/image/ab67616d000048510b2dd5b222295ed11c07954c", "width": 64}], "name": "OK ORCHESTRA", "release_date": "2021-03-26", "release_date_precision": "day", "total_tracks": 13, "type": "album", "uri": "spotify:album:0KC9H4iFOOWiKEa5IzKKOE"}, {"album_group": "album", "album_type": "album", "artists": [{"external_urls": {"spotify": "https://open.spotify.com/artist/6s22t5Y3prQHyaHWUN1R1C"}, "href": "https://api.spotify.com/v1/artists/6s22t5Y3prQHyaHWUN1R1C", "id": "6s22t5Y3prQHyaHWUN1R1C", "name": "AJR", "type": "artist", "uri": "spotify:artist:6s22t5Y3prQHyaHWUN1R1C"}], "available_markets": ["US"], "external_urls": {"spotify": "https://open.spotify.com/album/3fhEairiL0g4qfXVUTFtF1"}, "href": "https://api.spotify.com/v1/albums/3fhEairiL0g4qfXVUTFtF1", "id": "3fhEairiL0g4qfXVUTFtF1", "images": [{"height": 640, "url": "https://i.scdn.co/image/ab67616d0000b27374be78bd14d095c8d76943a0", "width": 640}, {"height": 300, "url": "https://i.scdn.co/image/ab67616d00001e0274be78bd14d095c8d76943a0", "width": 300}, {"height": 64, "url": "https://i.scdn.co/image/ab67616d0000485174be78bd14d095c8d76943a0", "width": 64}], "name": "The Click (Deluxe Edition)", "release_date": "2019-10-18", "release_date_precision": "day", "total_tracks": 17, "type": "album", "uri": "spotify:album:3fhEairiL0g4qfXVUTFtF1"}, {"album_group": "album", "album_type": "album", "artists": [{"external_urls": {"spotify": "https://open.spotify.com/artist/6s22t5Y3prQHyaHWUN1R1C"}, "href": "https://api.spotify.com/v1/artists/6s22t5Y3prQHyaHWUN1R1C", "id": "6s22t5Y3prQHyaHWUN1R1C", "name": "AJR", "type": "artist", "uri": "spotify:artist:6s22t5Y3prQHyaHWUN1R1C"}], "available_markets": ["US"], "external_urls": {"spotify": "https://open.spotify.com/album/5cOMvagAM9ldzK3yLeSoZV"}, "href": "https://api.spotify.com/v1/albums/5cOMvagAM9ldzK3yLeSoZV", "id": "5cOMvagAM9ldzK3yLeSoZV", "images": [{"height": 640, "url": "https://i.scdn.co/image/ab67616d0000b273a320d7e9efd7602648fb78e3", "width": 640}, {"height": 300, "url": "https://i.scdn.co/image/ab67616d00001e02a320d7e9efd7602648fb78e3", "width": 300}, {"height": 64, "url": "https://i.scdn.co/image/ab67616d00004851a320d7e9efd7602648fb78e3", "width": 64}], "name": "Neotheater", "release_date": "2019-04-26", "release_date_precision": "day", "total_tracks": 12, "type": "album", "uri": "spotify:album:5cOMvagAM9ldzK3yLeSoZV"}, {"album_group": "album", "album_type": "album", "artists": [{"external_urls": {"spotify": "https://open.spotify.com/artist/6s22t5Y3prQHyaHWUN1R1C"}, "href": "https://api.spotify.com/v1/artists/6s22t5Y3prQHyaHWUN1R1C", "id": "6s22t5Y3prQHyaHWUN1R1C", "name": "AJR", "type": "artist", "uri": "spotify:artist:6s22t5Y3prQHyaHWUN1R1C"}], "available_markets": ["US"], "external_urls": {"spotify": "https://open.spotify.com/album/1nOOYWt0s8RGKgKDTMA77h"}, "href": "https://api.spotify.com/v1/albums/1nOOYWt0s8RGKgKDTMA77h", "id": "1nOOYWt0s8RGKgKDTMA77h", "images": [{"height": 640, "url": "https://i.scdn.co/image/ab67616d0000b273a81dc97f7119864c7437cb85", "width": 640}, {"height": 300, "url": "https://i.scdn.co/image/ab67616d00001e02a81dc97f7119864c7437cb85", "width": 300}, {"height": 64, "url": "https://i.scdn.co/image/ab67616d00004851a81dc97f7119864c7437cb85", "width": 64}], "name": "The Click", "release_date": "2017-06-09", "release_date_precision": "day", "total_tracks": 13, "type": "album", "uri": "spotify:album:1nOOYWt0s8RGKgKDTMA77h"}], "limit": 5, "next": "https://api.spotify.com/v1/artists/6s22t5Y3prQHyaHWUN1R1C/albums?include_groups=album&offset=5&limit=5", "offset": 0, "previous": null, "total": 7}