{"href": "https://api.spotify.com/v1/artists/1vCWHaC5f2uS3yhpwWbIA6/albums?include_groups=album&offset=0&limit=5", "items": [{"album_group": "album", "album_type": "album", "artists": [{"external_urls": {"spotify": "https://open.spotify.com/artist/1vCWHaC5f2uS3yhpwWbIA6"}, "href": "https://api.spotify.com/v1/artists/1vCWHaC5f2uS3yhpwWbIA6", "id": "1vCWHaC5f2uS3yhpwWbIA6", "name": "Avicii", "type": "artist", "uri": "spotify:artist:1vCWHaC5f2uS3yhpwWbIA6"}], "available_markets": ["AR", "AU", "AT", "BE", "BO", "BR", "BG", "CA", "CL", "CO", "CR", "CY", "CZ", "DK", "DO", "DE", "EC", "EE", "SV", "FI", "FR", "GR", "GT", "HN", "HK", "HU", "IS", "IE", "IT", "LV", "LT", "LU", "MY", "MT", "MX", "NL", "NZ", "NI", "NO", "PA", "PY", "PE", "PH", "PL", "PT", "SG", "SK", "ES", "SE", "CH", "TW", "TR", "UY", "US", "GB", "AD", "LI", "MC", "ID", "JP", "TH", "VN", "RO", "IL", "ZA", "SA", "AE", "BH", "QA", "OM", "KW", "EG", "MA", "DZ", "TN", "LB", "JO", "PS", "IN", "BY", "KZ", "MD", "UA", "AL", "BA", "HR", "ME", "MK", "RS", "SI", "KR", "BD", "PK", "LK", "GH", "KE", "NG", "TZ", "UG", "AG", "AM", "BS", "BB", "BZ", "BT", "BW", "BF", "CV", "CW", "DM", "FJ", "GM", "GE", "GD", "GW", "GY", "HT", "JM", "KI", "LS", "LR", "MW", "MV", "ML", "MH", "FM", "NA", "NR", "NE", "PW", "PG", "WS", "SM", "ST", "SN", "SC", "SL", "SB", "KN", "LC", "VC", "SR", "TL", "TO", "TT", "TV", "VU", "AZ", "BN", "BI", "KH", "CM", "TD", "KM", "GQ", "SZ", "GA", "GN", "KG", "LA", "MO", "MR", "MN", "NP", "RW", "TG", "UZ", "ZW", "BJ", "MG", "MU", "MZ", "AO", "CI", "DJ", "ZM", "CD", "CG", "IQ", "LY", "TJ", "VE", "ET", "XK"], "external_urls": {"spotify": "https://open.spotify.com/album/6Ad1E9vl75ZB3Ir87zwXIJ"}, "href": "https://api.spotify.com/v1/albums/6Ad1E9vl75ZB3Ir87zwXIJ", "id": "6Ad1E9vl75ZB3Ir87zwXIJ", "images": [{"height": 640, "url": "https://i.scdn.co/image/ab67616d0000b273660ee24281a547103f466ff5", "width": 640}, {"height": 300, "url": "https://i.scdn.co/image/ab67616d00001e02660ee24281a547103f466ff5", "width": 300}, {"height": 64, "url": "https://i.scdn.co/image/ab67616d00004851660ee24281a547103f466ff5", "width": 64}], "name": "TIM", "release_date": "2019-06-06", "release_date_precision": "day", "total_tracks": 12, "type": "album", "uri": "spotify:album:6Ad1E9vl75ZB3Ir87zwXIJ"}, {"album_group": "album", "album_type": "album", "artists": [{"external_urls": {"spotify": "https://open.spotify.com/artist/1vCWHaC5f2uS3yhpwWbIA6"}, "href": "https://api.spotify.com/v1/artists/1vCWHaC5f2uS3yhpwWbIA6", "id": "1vCWHaC5f2uS3yhpwWbIA6", "name": "Avicii", "type": "artist", "uri": "spotify:artist:1vCWHaC5f2uS3yhpwWbIA6"}], "available_markets": ["AR", "AU", "AT", "BE", "BO", "BR", "BG", "CA", "CL", "CO", "CR", "CY", "CZ", "DK", "DO", "DE", "EC", "EE", "SV", "FI", "FR", "GR", "GT", "HN", "HK", "HU", "IS", "IE", "IT", "LV", "LT", "LU", "MY", "MT", "MX", "NL", "NZ", "NI", "NO", "PA", "PY", "PE", "PH", "PL", "PT", "SG", "SK", "ES", "SE", "CH", "TW", "TR", "UY", "US", "AD", "LI", "MC", "ID", "TH", "VN", "RO", "IL", "ZA", "SA", "AE", "BH", "QA", "OM", "KW", "EG", "MA", "DZ", "TN", "LB", "JO", "PS", "IN", "BY", "KZ", "MD", "UA", "AL", "BA", "HR", "ME", "MK", "RS", "SI", "KR", "BD", "PK", "LK", "GH", "KE", "NG", "TZ", "UG", "AG", "AM", "BS", "BB", "BZ", "BT", "BW", "BF", "CV", "CW", "DM", "FJ", "GM", "GE", "GD", "GW", "GY", "HT", "JM", "KI", "LS", "LR", "MW", "MV", "ML", "MH", "FM", "NA", "NR", "NE", "PW", "PG", "WS", "SM", "ST", "SN", "SC", "SL", "SB", "KN", "LC", "VC", "SR", "TL", "TO", "TT", "TV", "VU", "AZ", "BN", "BI", "KH", "CM", "TD", "KM", "GQ", "SZ", "GA", "GN", "KG", "LA", "MO", "MR", "MN", "NP", "RW", "TG", "UZ", "ZW", "BJ", "MG", "MU", "MZ", "AO", "CI", "DJ", "ZM", "CD", "CG", "IQ", "LY", "TJ", "VE", "XK"], "external_urls": {"spotify": "https://open.spotify.com/album/7dqftJ3kas6D0VAdmt3k3V"}, "href": "https://api.spotify.com/v1/albums/7dqftJ3kas6D0VAdmt3k3V", "id": "7dqftJ3kas6D0VAdmt3k3V", "images": [{"height": 640, "url": "https://i.scdn.co/image/ab67616d0000b2735393c5d3cac806092a9bc468", "width": 640}, {"height": 300, "url": "https://i.scdn.co/image/ab67616d00001e025393c5d3cac806092a9bc468", "width": 300}, {"height": 64, "url": "https://i.scdn.co/image/ab67616d000048515393c5d3cac806092a9bc468", "width": 64}], "name": "Stories", "release_date": "2015-10-02", "release_date_precision": "day", "total_tracks": 14, "type": "album", "uri": "spotify:album:7dqftJ3kas6D0VAdmt3k3V"}, {"album_group": "album", "album_type": "album", "artists": [{"external_urls": {"spotify": "https://open.spotify.com/artist/1vCWHaC5f2uS3yhpwWbIA6"}, "href": "https://api.spotify.com/v1/artists/1vCWHaC5f2uS3yhpwWbIA6", "id": "1vCWHaC5f2uS3yhpwWbIA6", "name": "Avicii", "type": "artist", "uri": "spotify:artist:1vCWHaC5f2uS3yhpwWbIA6"}], "available_markets": ["AR", "AU", "AT", "BE", "BO", "BR", "BG", "CA", "CL", "CO", "CR", "CY", "CZ", "DK", "DO", "DE", "EC", "EE", "SV", "FI", "FR", "GR", "GT", "HN", "HK", "HU", "IS", "IE", "IT", "LV", "LT", "LU", "MY", "MT", "MX", "NL", "NZ", "NI", "NO", "PA", "PY", "PE", "PH", "PL", "PT", "SG", "SK", "ES", "SE", "CH", "TW", "TR", "UY", "US", "GB", "AD", "LI", "MC", "ID", "JP", "TH", "VN", "RO", "IL", "ZA", "SA", "AE", "BH", "QA", "OM", "KW", "EG", "MA", "DZ", "TN", "LB", "JO", "PS", "IN", "BY", "KZ", "MD", "UA", "AL", "BA", "HR", "ME", "MK", "RS", "SI", "KR", "BD", "PK", "LK", "GH", "KE", "NG", "TZ", "UG", "AG", "AM", "BS", "BB", "BZ", "BT", "BW", "BF", "CV", "CW", "DM", "FJ", "GM", "GD", "GW", "GY", "HT", "JM", "KI", "LS", "LR", "MW", "MV", "ML", "MH", "FM", "NA", "NR", "NE", "PW", "PG", "WS", "ST", "SN", "SC", "SL", "SB", "KN", "LC", "VC", "SR", "TL", "TO", "TT", "TV", "AZ", "BN", "BI", "KH", "CM", "TD", "KM", "GQ", "SZ", "GA", "GN", "KG", "LA", "MO", "MR", "MN", "NP", "RW", "TG", "UZ", "ZW", "BJ", "MG", "MU", "MZ", "AO", "CI", "DJ", "ZM", "CD", "CG", "IQ", "LY", "TJ", "VE", "XK"], "external_urls": {"spotify": "https://open.spotify.com/album/0ignCov9foaLxuqND5GMtl"}, "href": "https://api.spotify.com/v1/albums/0ignCov9foaLxuqND5GMtl", "id": "0ignCov9foaLxuqND5GMtl", "images": [{"height": 640, "url": "https://i.scdn.co/image/ab67616d0000b273182fe5b5d3e3c3fcc895a3c8", "width": 640}, {"height": 300, "url": "https://i.scdn.co/image/ab67616d00001e02182fe5b5d3e3c3fcc895a3c8", "width": 300}, {"height": 64, "url": "https://i.scdn.co/image/ab67616d00004851182fe5b5d3e3c3fcc895a3c8", "width": 64}], "name": "True: Avicii By Avicii", "release_date": "2014-01-01", "release_date_precision": "day", "total_tracks": 9, "type": "album", "uri": "spotify:album:0ignCov9foaLxuqND5GMtl"}, {"album_group": "album", "album_type": "album", "artists": [{"external_urls": {"spotify": "https://open.spotify.com/artist/1vCWHaC5f2uS3yhpwWbIA6"}, "href": "https://api.spotify.com/v1/artists/1vCWHaC5f2uS3yhpwWbIA6", "id": "1vCWHaC5f2uS3yhpwWbIA6", "name": "Avicii", "type": "artist", "uri": "spotify:artist:1vCWHaC5f2uS3yhpwWbIA6"}], "available_markets": ["AR", "AU", "AT", "BE", "BO", "BR", "BG", "CA", "CL", "CO", "CR", "CY", "CZ", "DK", "DO", "DE", "EC", "EE", "SV", "FI", "FR", "GR", "GT", "HN", "HK", "HU", "IS", "IE", "IT", "LV", "LT", "LU", "MY", "MT", "MX", "NL", "NZ", "NI", "NO", "PA", "PY", "PE", "PH", "PL", "PT", "SG", "SK", "ES", "SE", "CH", "TW", "TR", "UY", "US", "GB", "AD", "LI", "MC", "ID", "JP", "TH", "VN", "RO", "IL", "ZA", "SA", "AE", "BH", "QA", "OM", "KW", "EG", "MA", "DZ", "TN", "LB", "JO", "PS", "IN", "BY", "KZ", "MD", "UA", "AL", "BA", "HR", "ME", "MK", "RS", "SI", "KR", "BD", "PK", "LK", "GH", "KE", "NG", "TZ", "UG", "AG", "AM", "BS", "BB", "BZ", "BT", "BW", "BF", "CV", "CW", "DM", "FJ", "GM", "GE", "GD", "GW", "GY", "HT", "JM", "KI", "LS", "LR", "MW", "MV", "ML", "MH", "FM", "NA", "NR", "NE", "PW", "PG", "WS", "SM", "ST", "SN", "SC", "SL", "SB", "KN", "LC", "VC", "SR", "TL", "TO", "TT", "TV", "VU", "AZ", "BN", "BI", "KH", "CM", "TD", "KM", "GQ", "SZ", "GA", "GN", "KG", "LA", "MO", "MR", "MN", "NP", "RW", "TG", "UZ", "ZW", "BJ", "MG", "MU", "MZ", "AO", "CI", "DJ", "ZM", "CD", "CG", "IQ", "LY", "TJ", "VE", "ET", "XK"], "external_urls": {"spotify": "https://open.spotify.com/album/0h2knr6qpiAq0tV5ri5JMF"}, "href": "https://api.spotify.com/v1/albums/0h2knr6qpiAq0tV5ri5JMF", "id": "0h2knr6qpiAq0tV5ri5JMF", "images": [{"height": 640, "url": "https://i.scdn.co/image/ab67616d0000b2730ae4f4d42e4a09f3a29f64ad", "width": 640}, {"height": 300, "url": "https://i.scdn.co/image/ab67616d00001e020ae4f4d42e4a09f3a29f64ad", "width": 300}, {"height": 64, "url": "https://i.scdn.co/image/ab67616d000048510ae4f4d42e4a09f3a29f64ad", "width": 64}], "name": "The Days / Nights", "release_date": "2014-01-01", "release_date_precision": "day", "total_tracks": 4, "type": "album", "uri": "spotify:album:0h2knr6qpiAq0tV5ri5JMF"}, {"album_group": "album", "album_type": "album", "artists": [{"external_urls": {"spotify": "https://open.spotify.com/artist/1vCWHaC5f2uS3yhpwWbIA6"}, "href": "https://api.spotify.com/v1/artists/1vCWHaC5f2uS3yhpwWbIA6", "id": "1vCWHaC5f2uS3yhpwWbIA6", "name": "Avicii", "type": "artist", "uri": "spotify:artist:1vCWHaC5f2uS3yhpwWbIA6"}], "available_markets": ["AR", "AU", "AT", "BE", "BO", "BR", "BG", "CA", "CL", "CO", "CR", "CY", "CZ", "DK", "DO", "DE", "EC", "EE", "SV", "FI", "FR", "GR", "GT", "HN", "HK", "HU", "IS", "IE", "IT", "LV", "LT", "LU", "MY", "MT", "MX", "NL", "NZ", "NI", "NO", "PA", "PY", "PE", "PH", "PL", "PT", "SG", "SK", "ES", "SE", "CH", "TW", "TR", "UY", "US", "GB", "AD", "LI", "MC", "ID", "JP", "TH", "VN", "RO", "IL", "ZA", "SA", "AE", "BH", "QA", "OM", "KW", "EG", "MA", "DZ", "TN", "LB", "JO", "PS", "IN", "BY", "KZ", "MD", "UA", "AL", "BA", "HR", "ME", "MK", "RS", "SI", "KR", "BD", "PK", "LK", "GH", "KE", "NG", "TZ", "UG", "AG", "AM", "BS", "BB", "BZ", "BT", "BW", "BF", "CV", "CW", "DM", "FJ", "GM", "GE", "GD", "GW", "GY", "HT", "JM", "KI", "LS", "LR", "MW", "MV", "ML", "MH", "FM", "NA", "NR", "NE", "PW", "PG", "WS", "SM", "ST", "SN", "SC", "SL", "SB", "KN", "LC", "VC", "SR", "TL", "TO", "TT", "TV", "VU", "AZ", "BN", "BI", "KH", "CM", "TD", "KM", "GQ", "SZ", "GA", "GN", "KG", "LA", "MO", "MR", "MN", "NP", "RW", "TG", "UZ", "ZW", "BJ", "MG", "MU", "MZ", "AO", "CI", "DJ", "ZM", "CD", "CG", "IQ", "LY", "TJ", "VE", "ET", "XK"], "external_urls": {"spotify": "https://open.spotify.com/album/50oWFJ0mDEeMa74ElsdAp3"}, "href": "https://api.spotify.com/v1/albums/50oWFJ0mDEeMa74ElsdAp3", "id": "50oWFJ0mDEeMa74ElsdAp3", "images": [{"height": 640, "url": "https://i.scdn.co/image/ab67616d0000b273c3760c26cc5374ddbd9fd530", "width": 640}, {"height": 300, "url": "https://i.scdn.co/image/ab67616d00001e02c3760c26cc5374ddbd9fd530", "width": 300}, {"height": 64, "url": "https://i.scdn.co/image/ab67616d00004851c3760c26cc5374ddbd9fd530", "width": 64}], "name": "True (Bonus Edition)", "release_date": "2013-09-16", "release_date_precision": "day", "total_tracks": 15, "type": "album", "uri": "spotify:album:50oWFJ0mDEeMa74ElsdAp3"}], "limit": 5, "next": "https://api.spotify.com/v1/artists/1vCWHaC5f2uS3yhpwWbIA6/albums?include_groups=album&offset=5&limit=5", "offset": 0, "previous": null, "total": 6}