{"href": "https://api.spotify.com/v1/artists/0N0d3kjwdY2h7UVuTdJGfp/albums?include_groups=album&offset=0&limit=5", "items": [{"album_group": "album", "album_type": "album", "artists": [{"external_urls": {"spotify": "https://open.spotify.com/artist/0N0d3kjwdY2h7UVuTdJGfp"}, "href": "https://api.spotify.com/v1/artists/0N0d3kjwdY2h7UVuTdJGfp", "id": "0N0d3kjwdY2h7UVuTdJGfp", "name": "Cascada", "type": "artist", "uri": "spotify:artist:0N0d3kjwdY2h7UVuTdJGfp"}], "available_markets": ["AR", "AU", "AT", "BE", "BO", "BR", "BG", "CA", "CL", "CO", "CR", "CY", "CZ", "DK", "DO", "DE", "EC", "EE", "SV", "FI", "FR", "GR", "GT", "HN", "HK", "HU", "IS", "IE", "IT", "LV", "LT", "LU", "MY", "MT", "MX", "NL", "NZ", "NI", "NO", "PA", "PY", "PE", "PH", "PL", "PT", "SG", "SK", "ES", "SE", "CH", "TW", "TR", "UY", "US", "GB", "AD", "LI", "MC", "ID", "JP", "TH", "VN", "RO", "IL", "ZA", "SA", "AE", "BH", "QA", "OM", "KW", "EG", "MA", "DZ", "TN", "LB", "JO", "PS", "IN", "BY", "KZ", "MD", "UA", "AL", "BA", "HR", "ME", "MK", "RS", "SI", "KR", "BD", "PK", "LK", "GH", "KE", "NG", "TZ", "UG", "AG", "AM", "BS", "BB", "BZ", "BT", "BW", "BF", "CV", "CW", "DM", "FJ", "GM", "GE", "GD", "GW", "GY", "HT", "JM", "KI", "LS", "LR", "MW", "MV", "ML", "MH", "FM", "NA", "NR", "NE", "PW", "PG", "WS", "SM", "ST", "SN", "SC", "SL", "SB", "KN", "LC", "VC", "SR", "TL", "TO", "TT", "TV", "VU", "AZ", "BN", "BI", "KH", "CM", "TD", "KM", "GQ", "SZ", "GA", "GN", "KG", "LA", "MO", "MR", "MN", "NP", "RW", "TG", "UZ", "ZW", "BJ", "MG", "MU", "MZ", "AO", "CI", "DJ", "ZM", "CD", "CG", "IQ", "LY", "TJ", "VE", "ET", "XK"], "external_urls": {"spotify": "https://open.spotify.com/album/5RJqlYQecyqmFoMbpt7GOc"}, "href": "https://api.spotify.com/v1/albums/5RJqlYQecyqmFoMbpt7GOc", "id": "5RJqlYQecyqmFoMbpt7GOc", "images": [{"height": 640, "url": "https://i.scdn.co/image/ab67616d0000b27337d9e6a39c3de546e46ad28a", "width": 640}, {"height": 300, "url": "https://i.scdn.co/image/ab67616d00001e0237d9e6a39c3de546e46ad28a", "width": 300}, {"height": 64, "url": "https://i.scdn.co/image/ab67616d0000485137d9e6a39c3de546e46ad28a", "width": 64}], "name": "Acoustic Sessions", "release_date": "2013-11-01", "release_date_precision": "day", "total_tracks": 16, "type": "album", "uri": "spotify:album:5RJqlYQecyqmFoMbpt7GOc"}, {"album_group": "album", "album_type": "album", "artists": [{"external_urls": {"spotify": "https://open.spotify.com/artist/0N0d3kjwdY2h7UVuTdJGfp"}, "href": "https://api.spotify.com/v1/artists/0N0d3kjwdY2h7UVuTdJGfp", "id": "0N0d3kjwdY2h7UVuTdJGfp", "name": "Cascada", "type": "artist", "uri": "spotify:artist:0N0d3kjwdY2h7UVuTdJGfp"}], "available_markets": ["AR", "AU", "AT", "BE", "BO", "BR", "BG", "CA", "CL", "CO", "CR", "CY", "CZ", "DK", "DO", "DE", "EC", "EE", "SV", "FI", "FR", "GR", "GT", "HN", "HK", "HU", "IS", "IE", "IT", "LV", "LT", "LU", "MY", "MT", "MX", "NL", "NZ", "NI", "NO", "PA", "PY", "PE", "PH", "PL", "PT", "SG", "SK", "ES", "SE", "CH", "TW", "TR", "UY", "US", "GB", "AD", "LI", "MC", "ID", "JP", "TH", "VN", "RO", "IL", "ZA", "SA", "AE", "BH", "QA", "OM", "KW", "EG", "MA", "DZ", "TN", "LB", "JO", "PS", "IN", "BY", "KZ", "MD", "UA", "AL", "BA", "HR", "ME", "MK", "RS", "SI", "KR", "BD", "PK", "LK", "GH", "KE", "NG", "TZ", "UG", "AG", "AM", "BS", "BB", "BZ", "BT", "BW", "BF", "CV", "CW", "DM", "FJ", "GM", "GE", "GD", "GW", "GY", "HT", "JM", "KI", "LS", "LR", "MW", "MV", "ML", "MH", "FM", "NA", "NR", "NE", "PW", "PG", "WS", "SM", "ST", "SN", "SC", "SL", "SB", "KN", "LC", "VC", "SR", "TL", "TO", "TT", "TV", "VU", "AZ", "BN", "BI", "KH", "CM", "TD", "KM", "GQ", "SZ", "GA", "GN", "KG", "LA", "MO", "MR", "MN", "NP", "RW", "TG", "UZ", "ZW", "BJ", "MG", "MU", "MZ", "AO", "CI", "DJ", "ZM", "CD", "CG", "IQ", "LY", "TJ", "VE", "ET", "XK"], "external_urls": {"spotify": "https://open.spotify.com/album/4mypoqDnd1VGlRjaL1vxhU"}, "href": "https://api.spotify.com/v1/albums/4mypoqDnd1VGlRjaL1vxhU", "id": "4mypoqDnd1VGlRjaL1vxhU", "images": [{"height": 640, "url": "https://i.scdn.co/image/ab67616d0000b2736f587c736c5f3f6fbf0d3e40", "width": 640}, {"height": 300, "url": "https://i.scdn.co/image/ab67616d00001e026f587c736c5f3f6fbf0d3e40", "width": 300}, {"height": 64, "url": "https://i.scdn.co/image/ab67616d000048516f587c736c5f3f6fbf0d3e40", "width": 64}], "name": "It's Christmas Time", "release_date": "2012-11-30", "release_date_precision": "day", "total_tracks": 12, "type": "album", "uri": "spotify:album:4mypoqDnd1VGlRjaL1vxhU"}, {"album_group": "album", "album_type": "album", "artists": [{"external_urls": {"spotify": "https://open.spotify.com/artist/0N0d3kjwdY2h7UVuTdJGfp"}, "href": "https://api.spotify.com/v1/artists/0N0d3kjwdY2h7UVuTdJGfp", "id": "0N0d3kjwdY2h7UVuTdJGfp", "name": "Cascada", "type": "artist", "uri": "spotify:artist:0N0d3kjwdY2h7UVuTdJGfp"}], "available_markets": ["AR", "AU", "AT", "BE", "BO", "BR", "BG", "CA", "CL", "CO", "CR", "CY", "CZ", "DK", "DO", "DE", "EC", "EE", "SV", "FI", "FR", "GR", "GT", "HN", "HK", "HU", "IS", "IE", "IT", "LV", "LT", "LU", "MY", "MT", "MX", "NL", "NZ", "NI", "NO", "PA", "PY", "PE", "PH", "PL", "PT", "SG", "SK", "ES", "SE", "CH", "TW", "TR", "UY", "US", "GB", "AD", "LI", "MC", "ID", "JP", "TH", "VN", "RO", "IL", "ZA", "SA", "AE", "BH", "QA", "OM", "KW", "EG", "MA", "DZ", "TN", "LB", "JO", "PS", "IN", "BY", "KZ", "MD", "UA", "AL", "BA", "HR", "ME", "MK", "RS", "SI", "KR", "BD", "PK", "LK", "GH", "KE", "NG", "TZ", "UG", "AG", "AM", "BS", "BB", "BZ", "BT", "BW", "BF", "CV", "CW", "DM", "FJ", "GM", "GE", "GD", "GW", "GY", "HT", "JM", "KI", "LS", "LR", "MW", "MV", "ML", "MH", "FM", "NA", "NR", "NE", "PW", "PG", "WS", "SM", "ST", "SN", "SC", "SL", "SB", "KN", "LC", "VC", "SR", "TL", "TO", "TT", "TV", "VU", "AZ", "BN", "BI", "KH", "CM", "TD", "KM", "GQ", "SZ", "GA", "GN", "KG", "LA", "MO", "MR", "MN", "NP", "RW", "TG", "UZ", "ZW", "BJ", "MG", "MU", "MZ", "AO", "CI", "DJ", "ZM", "CD", "CG", "IQ", "LY", "TJ", "VE", "ET", "XK"], "external_urls": {"spotify": "https://open.spotify.com/album/2VrsHZqRoUMtmiRmaMNzSW"}, "href": "https://api.spotify.com/v1/albums/2VrsHZqRoUMtmiRmaMNzSW", "id": "2VrsHZqRoUMtmiRmaMNzSW", "images": [{"height": 640, "url": "https://i.scdn.co/image/ab67616d0000b2735c0bc67f66f7865cadbef41c", "width": 640}, {"height": 300, "url": "https://i.scdn.co/image/ab67616d00001e025c0bc67f66f7865cadbef41c", "width": 300}, {"height": 64, "url": "https://i.scdn.co/image/ab67616d000048515c0bc67f66f7865cadbef41c", "width": 64}], "name": "Original Me (The Album)", "release_date": "2011-11-29", "release_date_precision": "day", "total_tracks": 11, "type": "album", "uri": "spotify:album:2VrsHZqRoUMtmiRmaMNzSW"}, {"album_group": "album", "album_type": "album", "artists": [{"external_urls": {"spotify": "https://open.spotify.com/artist/0N0d3kjwdY2h7UVuTdJGfp"}, "href": "https://api.spotify.com/v1/artists/0N0d3kjwdY2h7UVuTdJGfp", "id": "0N0d3kjwdY2h7UVuTdJGfp", "name": "Cascada", "type": "artist", "uri": "spotify:artist:0N0d3kjwdY2h7UVuTdJGfp"}], "available_markets": ["AR", "AU", "AT", "BE", "BO", "BR", "BG", "CA", "CL", "CO", "CR", "CY", "CZ", "DK", "DO", "DE", "EC", "EE", "SV", "FI", "FR", "GR", "GT", "HN", "HK", "HU", "IS", "IE", "IT", "LV", "LT", "LU", "MY", "MT", "MX", "NL", "NZ", "NI", "NO", "PA", "PY", "PE", "PH", "PL", "PT", "SG", "SK", "ES", "SE", "CH", "TW", "TR", "UY", "US", "GB", "AD", "LI", "MC", "ID", "JP", "TH", "VN", "RO", "IL", "ZA", "SA", "AE", "BH", "QA", "OM", "KW", "EG", "MA", "DZ", "TN", "LB", "JO", "PS", "IN", "BY", "KZ", "MD", "UA", "AL", "BA", "HR", "ME", "MK", "RS", "SI", "KR", "BD", "PK", "LK", "GH", "KE", "NG", "TZ", "UG", "AG", "AM", "BS", "BB", "BZ", "BT", "BW", "BF", "CV", "CW", "DM", "FJ", "GM", "GE", "GD", "GW", "GY", "HT", "JM", "KI", "LS", "LR", "MW", "MV", "ML", "MH", "FM", "NA", "NR", "NE", "PW", "PG", "WS", "SM", "ST", "SN", "SC", "SL", "SB", "KN", "LC", "VC", "SR", "TL", "TO", "TT", "TV", "VU", "AZ", "BN", "BI", "KH", "CM", "TD", "KM", "GQ", "SZ", "GA", "GN", "KG", "LA", "MO", "MR", "MN", "NP", "RW", "TG", "UZ", "ZW", "BJ", "MG", "MU", "MZ", "AO", "CI", "DJ", "ZM", "CD", "CG", "IQ", "LY", "TJ", "VE", "ET", "XK"], "external_urls": {"spotify": "https://open.spotify.com/album/3QulohHqVV4TJvlknidB3I"}, "href": "https://api.spotify.com/v1/albums/3QulohHqVV4TJvlknidB3I", "id": "3QulohHqVV4TJvlknidB3I", "images": [{"height": 640, "url": "https://i.scdn.co/image/ab67616d0000b273c58c72c677a255a5794b9c73", "width": 640}, {"height": 300, "url": "https://i.scdn.co/image/ab67616d00001e02c58c72c677a255a5794b9c73", "width": 300}, {"height": 64, "url": "https://i.scdn.co/image/ab67616d00004851c58c72c677a255a5794b9c73", "width": 64}], "name": "Perfect Day (Premium Edition)", "release_date": "2010-02-12", "release_date_precision": "day", "total_tracks": 40, "type": "album", "uri": "spotify:album:3QulohHqVV4TJvlknidB3I"}, {"album_group": "album", "album_type": "album", "artists": [{"external_urls": {"spotify": "https://open.spotify.com/artist/0N0d3kjwdY2h7UVuTdJGfp"}, "href": "https://api.spotify.com/v1/artists/0N0d3kjwdY2h7UVuTdJGfp", "id": "0N0d3kjwdY2h7UVuTdJGfp", "name": "Cascada", "type": "artist", "uri": "spotify:artist:0N0d3kjwdY2h7UVuTdJGfp"}], "available_markets": ["AR", "AU", "AT", "BE", "BO", "BR", "BG", "CA", "CL", "CO", "CR", "CY", "CZ", "DK", "DO", "DE", "EC", "EE", "SV", "FI", "FR", "GR", "GT", "HN", "HK", "HU", "IS", "IE", "IT", "LV", "LT", "LU", "MY", "MT", "MX", "NL", "NZ", "NI", "NO", "PA", "PY", "PE", "PH", "PL", "PT", "SG", "SK", "ES", "SE", "CH", "TW", "TR", "UY", "US", "GB", "AD", "LI", "MC", "ID", "JP", "TH", "VN", "RO", "IL", "ZA", "SA", "AE", "BH", "QA", "OM", "KW", "EG", "MA", "DZ", "TN", "LB", "JO", "PS", "IN", "BY", "KZ", "MD", "UA", "AL", "BA", "HR", "ME", "MK", "RS", "SI", "KR", "BD", "PK", "LK", "GH", "KE", "NG", "TZ", "UG", "AG", "AM", "BS", "BB", "BZ", "BT", "BW", "BF", "CV", "CW", "DM", "FJ", "GM", "GE", "GD", "GW", "GY", "HT", "JM", "KI", "LS", "LR", "MW", "MV", "ML", "MH", "FM", "NA", "NR", "NE", "PW", "PG", "WS", "SM", "ST", "SN", "SC", "SL", "SB", "KN", "LC", "VC", "SR", "TL", "TO", "TT", "TV", "VU", "AZ", "BN", "BI", "KH", "CM", "TD", "KM", "GQ", "SZ", "GA", "GN", "KG", "LA", "MO", "MR", "MN", "NP", "RW", "TG", "UZ", "ZW", "BJ", "MG", "MU", "MZ", "AO", "CI", "DJ", "ZM", "CD", "CG", "IQ", "LY", "TJ", "VE", "ET", "XK"], "external_urls": {"spotify": "https://open.spotify.com/album/2unbJ7dUr9mITQiMwWFqQD"}, "href": "https://api.spotify.com/v1/albums/2unbJ7dUr9mITQiMwWFqQD", "id": "2unbJ7dUr9mITQiMwWFqQD", "images": [{"height": 640, "url": "https://i.scdn.co/image/ab67616d0000b273e0c8b75abb6704283aa645aa", "width": 640}, {"height": 300, "url": "https://i.scdn.co/image/ab67616d00001e02e0c8b75abb6704283aa645aa", "width": 300}, {"height": 64, "url": "https://i.scdn.co/image/ab67616d00004851e0c8b75abb6704283aa645aa", "width": 64}], "name": "Everytime We Touch (Premium Edition)", "release_date": "2010-02-12", "release_date_precision": "day", "total_tracks": 45, "type": "album", "uri": "spotify:album:2unbJ7dUr9mITQiMwWFqQD"}], "limit": 5, "next": "https://api.spotify.com/v1/artists/0N0d3kjwdY2h7UVuTdJGfp/albums?include_groups=album&offset=5&limit=5", "offset": 0, "previous": null, "total": 8}