{"href": "https://api.spotify.com/v1/artists/6M2wZ9GZgrQXHCFfjv46we/albums?include_groups=album&offset=0&limit=5", "items": [{"album_group": "album", "album_type": "album", "artists": [{"external_urls": {"spotify": "https://open.spotify.com/artist/6M2wZ9GZgrQXHCFfjv46we"}, "href": "https://api.spotify.com/v1/artists/6M2wZ9GZgrQXHCFfjv46we", "id": "6M2wZ9GZgrQXHCFfjv46we", "name": "Dua Lipa", "type": "artist", "uri": "spotify:artist:6M2wZ9GZgrQXHCFfjv46we"}], "available_markets": ["AR", "AU", "BE", "BO", "BR", "BG", "CA", "CL", "CO", "CR", "CY", "CZ", "DK", "DO", "EC", "EE", "SV", "FI", "FR", "GR", "GT", "HN", "HK", "HU", "IS", "IE", "IT", "LV", "LT", "LU", "MY", "MT", "MX", "NL", "NZ", "NI", "NO", "PA", "PY", "PE", "PH", "PL", "PT", "SG", "SK", "ES", "SE", "TW", "TR", "UY", "US", "GB", "AD", "LI", "MC", "ID", "JP", "TH", "VN", "RO", "IL", "ZA", "SA", "AE", "BH", "QA", "OM", "KW", "EG", "MA", "DZ", "TN", "LB", "JO", "PS", "IN", "BY", "KZ", "MD", "UA", "AL", "BA", "HR", "ME", "MK", "RS", "SI", "KR", "BD", "PK", "LK", "GH", "KE", "NG", "TZ", "UG", "AG", "AM", "BS", "BB", "BZ", "BT", "BW", "BF", "CV", "CW", "DM", "FJ", "GM", "GE", "GD", "GW", "GY", "HT", "JM", "KI", "LS", "LR", "MW", "MV", "ML", "MH", "FM", "NA", "NR", "NE", "PW", "PG", "WS", "SM", "ST", "SN", "SC", "SL", "SB", "KN", "LC", "VC", "SR", "TL", "TO", "TT", "TV", "VU", "AZ", "BN", "BI", "KH", "CM", "TD", "KM", "GQ", "SZ", "GA", "GN", "KG", "LA", "MO", "MR", "MN", "NP", "RW", "TG", "UZ", "ZW", "BJ", "MG", "MU", "MZ", "AO", "CI", "DJ", "ZM", "CD", "CG", "IQ", "LY", "TJ", "VE", "ET", "XK"], "external_urls": {"spotify": "https://open.spotify.com/album/0JeyP8r2hBxYIoxXv11XiX"}, "href": "https://api.spotify.com/v1/albums/0JeyP8r2hBxYIoxXv11XiX", "id": "0JeyP8r2hBxYIoxXv11XiX", "images": [{"height": 640, "url": "https://i.scdn.co/image/ab67616d0000b273ccdddb2e5349ea0608c3e016", "width": 640}, {"height": 300, "url": "https://i.scdn.co/image/ab67616d00001e02ccdddb2e5349ea0608c3e016", "width": 300}, {"height": 64, "url": "https://i.scdn.co/image/ab67616d00004851ccdddb2e5349ea0608c3e016", "width": 64}], "name": "Future Nostalgia (The Moonlight Edition)", "release_date": "2021-02-11", "release_date_precision": "day", "total_tracks": 19, "type": "album", "uri": "spotify:album:0JeyP8r2hBxYIoxXv11XiX"}, {"album_group": "album", "album_type": "album", "artists": [{"external_urls": {"spotify": "https://open.spotify.com/artist/6M2wZ9GZgrQXHCFfjv46we"}, "href": "https://api.spotify.com/v1/artists/6M2wZ9GZgrQXHCFfjv46we", "id": "6M2wZ9GZgrQXHCFfjv46we", "name": "Dua Lipa", "type": "artist", "uri": "spotify:artist:6M2wZ9GZgrQXHCFfjv46we"}, {"external_urls": {"spotify": "https://open.spotify.com/artist/4TvhRzxIL1le2PWCeUqxQw"}, "href": "https://api.spotify.com/v1/artists/4TvhRzxIL1le2PWCeUqxQw", "id": "4TvhRzxIL1le2PWCeUqxQw", "name": "The Blessed Madonna", "type": "artist", "uri": "spotify:artist:4TvhRzxIL1le2PWCeUqxQw"}], "available_markets": ["AR", "AU", "BE", "BO", "BR", "BG", "CA", "CL", "CO", "CR", "CY", "CZ", "DK", "DO", "EC", "EE", "SV", "FI", "FR", "GR", "GT", "HN", "HK", "HU", "IS", "IE", "IT", "LV", "LT", "LU", "MY", "MT", "MX", "NL", "NZ", "NI", "NO", "PA", "PY", "PE", "PH", "PL", "PT", "SG", "SK", "ES", "SE", "TW", "TR", "UY", "US", "GB", "AD", "LI", "MC", "ID", "JP", "TH", "VN", "RO", "IL", "ZA", "SA", "AE", "BH", "QA", "OM", "KW", "EG", "MA", "DZ", "TN", "LB", "JO", "PS", "IN", "BY", "KZ", "MD", "UA", "AL", "BA", "HR", "ME", "MK", "RS", "SI", "KR", "BD", "PK", "LK", "GH", "KE", "NG", "TZ", "UG", "AG", "AM", "BS", "BB", "BZ", "BT", "BW", "BF", "CV", "CW", "DM", "FJ", "GM", "GE", "GD", "GW", "GY", "HT", "JM", "KI", "LS", "LR", "MW", "MV", "ML", "MH", "FM", "NA", "NR", "NE", "PW", "PG", "WS", "SM", "ST", "SN", "SC", "SL", "SB", "KN", "LC", "VC", "SR", "TL", "TO", "TT", "TV", "VU", "AZ", "BN", "BI", "KH", "CM", "TD", "KM", "GQ", "SZ", "GA", "GN", "KG", "LA", "MO", "MR", "MN", "NP", "RW", "TG", "UZ", "ZW", "BJ", "MG", "MU", "MZ", "AO", "CI", "DJ", "ZM", "CD", "CG", "IQ", "LY", "TJ", "VE", "ET", "XK"], "external_urls": {"spotify": "https://open.spotify.com/album/3W04W2HfQ5kVeByxfjbu2C"}, "href": "https://api.spotify.com/v1/albums/3W04W2HfQ5kVeByxfjbu2C", "id": "3W04W2HfQ5kVeByxfjbu2C", "images": [{"height": 640, "url": "https://i.scdn.co/image/ab67616d0000b27357fe88ee748288269959a018", "width": 640}, {"height": 300, "url": "https://i.scdn.co/image/ab67616d00001e0257fe88ee748288269959a018", "width": 300}, {"height": 64, "url": "https://i.scdn.co/image/ab67616d0000485157fe88ee748288269959a018", "width": 64}], "name": "Club Future Nostalgia (DJ Mix)", "release_date": "2020-08-28", "release_date_precision": "day", "total_tracks": 17, "type": "album", "uri": "spotify:album:3W04W2HfQ5kVeByxfjbu2C"}, {"album_group": "album", "album_type": "album", "artists": [{"external_urls": {"spotify": "https://open.spotify.com/artist/6M2wZ9GZgrQXHCFfjv46we"}, "href": "https://api.spotify.com/v1/artists/6M2wZ9GZgrQXHCFfjv46we", "id": "6M2wZ9GZgrQXHCFfjv46we", "name": "Dua Lipa", "type": "artist", "uri": "spotify:artist:6M2wZ9GZgrQXHCFfjv46we"}], "available_markets": ["AR", "AU", "BE", "BO", "BR", "BG", "CA", "CL", "CO", "CR", "CY", "CZ", "DK", "DO", "EC", "EE", "SV", "FI", "FR", "GR", "GT", "HN", "HK", "HU", "IS", "IE", "IT", "LV", "LT", "LU", "MY", "MT", "MX", "NL", "NZ", "NI", "NO", "PA", "PY", "PE", "PH", "PL", "PT", "SG", "SK", "ES", "TW", "TR", "UY", "US", "GB", "AD", "LI", "MC", "ID", "JP", "TH", "VN", "RO", "IL", "ZA", "SA", "AE", "BH", "QA", "OM", "KW", "EG", "MA", "DZ", "TN", "LB", "JO", "PS", "IN", "BY", "KZ", "MD", "UA", "AL", "BA", "HR", "ME", "MK", "RS", "SI", "KR", "BD", "PK", "LK", "GH", "KE", "NG", "TZ", "UG", "AG", "AM", "BS", "BB", "BZ", "BT", "BW", "BF", "CV", "CW", "DM", "FJ", "GM", "GE", "GD", "GW", "GY", "HT", "JM", "KI", "LS", "LR", "MW", "MV", "ML", "MH", "FM", "NA", "NR", "NE", "PW", "PG", "WS", "SM", "ST", "SN", "SC", "SL", "SB", "KN", "LC", "VC", "SR", "TL", "TO", "TT", "TV", "VU", "AZ", "BN", "BI", "KH", "CM", "TD", "KM", "GQ", "SZ", "GA", "GN", "KG", "LA", "MO", "MR", "MN", "NP", "RW", "TG", "UZ", "ZW", "BJ", "MG", "MU", "MZ", "AO", "CI", "DJ", "ZM", "CD", "CG", "IQ", "LY", "TJ", "VE", "ET", "XK"], "external_urls": {"spotify": "https://open.spotify.com/album/5lKlFlReHOLShQKyRv6AL9"}, "href": "https://api.spotify.com/v1/albums/5lKlFlReHOLShQKyRv6AL9", "id": "5lKlFlReHOLShQKyRv6AL9", "images": [{"height": 640, "url": "https://i.scdn.co/image/ab67616d0000b2732172b607853fa89cefa2beb4", "width": 640}, {"height": 300, "url": "https://i.scdn.co/image/ab67616d00001e022172b607853fa89cefa2beb4", "width": 300}, {"height": 64, "url": "https://i.scdn.co/image/ab67616d000048512172b607853fa89cefa2beb4", "width": 64}], "name": "Future Nostalgia", "release_date": "2020-03-27", "release_date_precision": "day", "total_tracks": 13, "type": "album", "uri": "spotify:album:5lKlFlReHOLShQKyRv6AL9"}, {"album_group": "album", "album_type": "album", "artists": [{"external_urls": {"spotify": "https://open.spotify.com/artist/6M2wZ9GZgrQXHCFfjv46we"}, "href": "https://api.spotify.com/v1/artists/6M2wZ9GZgrQXHCFfjv46we", "id": "6M2wZ9GZgrQXHCFfjv46we", "name": "Dua Lipa", "type": "artist", "uri": "spotify:artist:6M2wZ9GZgrQXHCFfjv46we"}], "available_markets": ["AR", "AU", "BE", "BO", "BR", "BG", "CA", "CL", "CO", "CR", "CY", "CZ", "DK", "DO", "EC", "EE", "SV", "FI", "FR", "GR", "GT", "HN", "HK", "HU", "IS", "IE", "IT", "LV", "LT", "LU", "MY", "MT", "MX", "NL", "NZ", "NI", "NO", "PA", "PY", "PE", "PH", "PL", "PT", "SG", "SK", "ES", "SE", "TW", "TR", "UY", "US", "GB", "AD", "LI", "MC", "ID", "JP", "TH", "VN", "RO", "IL", "ZA", "SA", "AE", "BH", "QA", "OM", "KW", "EG", "MA", "DZ", "TN", "LB", "JO", "PS", "IN", "BY", "KZ", "MD", "UA", "AL", "BA", "HR", "ME", "MK", "RS", "SI", "KR", "BD", "PK", "LK", "GH", "KE", "NG", "TZ", "UG", "AG", "AM", "BS", "BB", "BZ", "BT", "BW", "BF", "CV", "CW", "DM", "FJ", "GM", "GE", "GD", "GW", "GY", "HT", "JM", "KI", "LS", "LR", "MW", "MV", "ML", "MH", "FM", "NA", "NR", "NE", "PW", "PG", "WS", "SM", "ST", "SN", "SC", "SL", "SB", "KN", "LC", "VC", "SR", "TL", "TO", "TT", "TV", "VU", "AZ", "BN", "BI", "KH", "CM", "TD", "KM", "GQ", "SZ", "GA", "GN", "KG", "LA", "MO", "MR", "MN", "NP", "RW", "TG", "UZ", "ZW", "BJ", "MG", "MU", "MZ", "AO", "CI", "DJ", "ZM", "CD", "CG", "IQ", "LY", "TJ", "VE", "ET", "XK"], "external_urls": {"spotify": "https://open.spotify.com/album/0obMz8EHnr3dg6NCUK4xWp"}, "href": "https://api.spotify.com/v1/albums/0obMz8EHnr3dg6NCUK4xWp", "id": "0obMz8EHnr3dg6NCUK4xWp", "images": [{"height": 640, "url": "https://i.scdn.co/image/ab67616d0000b273ae395b47b186c2bc8c458e0f", "width": 640}, {"height": 300, "url": "https://i.scdn.co/image/ab67616d00001e02ae395b47b186c2bc8c458e0f", "width": 300}, {"height": 64, "url": "https://i.scdn.co/image/ab67616d00004851ae395b47b186c2bc8c458e0f", "width": 64}], "name": "Dua Lipa (Complete Edition)", "release_date": "2018-10-19", "release_date_precision": "day", "total_tracks": 25, "type": "album", "uri": "spotify:album:0obMz8EHnr3dg6NCUK4xWp"}, {"album_group": "album", "album_type": "album", "artists": [{"external_urls": {"spotify": "https://open.spotify.com/artist/6M2wZ9GZgrQXHCFfjv46we"}, "href": "https://api.spotify.com/v1/artists/6M2wZ9GZgrQXHCFfjv46we", "id": "6M2wZ9GZgrQXHCFfjv46we", "name": "Dua Lipa", "type": "artist", "uri": "spotify:artist:6M2wZ9GZgrQXHCFfjv46we"}], "available_markets": ["AR", "AU", "BE", "BO", "BR", "BG", "CA", "CL", "CO", "CR", "CY", "CZ", "DK", "DO", "EC", "EE", "SV", "FI", "FR", "GR", "GT", "HN", "HK", "HU", "IS", "IT", "LV", "LT", "LU", "MY", "MT", "MX", "NL", "NZ", "NI", "NO", "PA", "PY", "PE", "PH", "PL", "PT", "SG", "SK", "ES", "SE", "TW", "TR", "UY", "US", "AD", "LI", "MC", "ID", "JP", "TH", "VN", "RO", "IL", "ZA", "SA", "AE", "BH", "QA", "OM", "KW", "EG", "MA", "DZ", "TN", "LB", "JO", "PS", "IN", "BY", "KZ", "MD", "UA", "AL", "BA", "HR", "ME", "MK", "RS", "SI", "KR", "BD", "PK", "LK", "GH", "KE", "NG", "TZ", "UG", "AG", "AM", "BS", "BB", "BZ", "BT", "BW", "BF", "CV", "CW", "DM", "FJ", "GM", "GE", "GD", "GW", "GY", "HT", "JM", "KI", "LS", "LR", "MW", "MV", "ML", "MH", "FM", "NA", "NR", "NE", "PW", "PG", "WS", "SM", "ST", "SN", "SC", "SL", "SB", "KN", "LC", "VC", "SR", "TL", "TO", "TT", "TV", "VU", "AZ", "BN", "BI", "KH", "CM", "TD", "KM", "GQ", "SZ", "GA", "GN", "KG", "LA", "MO", "MR", "MN", "NP", "RW", "TG", "UZ", "ZW", "BJ", "MG", "MU", "MZ", "AO", "CI", "DJ", "ZM", "CD", "CG", "IQ", "LY", "TJ", "VE", "ET", "XK"], "external_urls": {"spotify": "https://open.spotify.com/album/01sfgrNbnnPUEyz6GZYlt9"}, "href": "https://api.spotify.com/v1/albums/01sfgrNbnnPUEyz6GZYlt9", "id": "01sfgrNbnnPUEyz6GZYlt9", "images": [{"height": 640, "url": "https://i.scdn.co/image/ab67616d0000b273838698485511bd9108fadadc", "width": 640}, {"height": 300, "url": "https://i.scdn.co/image/ab67616d00001e02838698485511bd9108fadadc", "width": 300}, {"height": 64, "url": "https://i.scdn.co/image/ab67616d00004851838698485511bd9108fadadc", "width": 64}], "name": "Dua Lipa (Deluxe)", "release_date": "2017-06-02", "release_date_precision": "day", "total_tracks": 17, "type": "album", "uri": "spotify:album:01sfgrNbnnPUEyz6GZYlt9"}], "limit": 5, "next": "https://api.spotify.com/v1/artists/6M2wZ9GZgrQXHCFfjv46we/albums?include_groups=album&offset=5&limit=5", "offset": 0, "previous": null, "total": 6}