{"href": "https://api.spotify.com/v1/artists/1Mxqyy3pSjf8kZZL4QVxS0/albums?include_groups=album&offset=0&limit=5", "items": [{"album_group": "album", "album_type": "album", "artists": [{"external_urls": {"spotify": "https://open.spotify.com/artist/1Mxqyy3pSjf8kZZL4QVxS0"}, "href": "https://api.spotify.com/v1/artists/1Mxqyy3pSjf8kZZL4QVxS0", "id": "1Mxqyy3pSjf8kZZL4QVxS0", "name": "Frank Sinatra", "type": "artist", "uri": "spotify:artist:1Mxqyy3pSjf8kZZL4QVxS0"}], "available_markets": ["AR", "AU", "AT", "BE", "BO", "BR", "BG", "CA", "CL", "CO", "CR", "CY", "CZ", "DK", "DO", "DE", "EC", "EE", "SV", "FI", "FR", "GR", "GT", "HN", "HK", "HU", "IS", "IE", "IT", "LV", "LT", "LU", "MY", "MT", "MX", "NL", "NZ", "NI", "NO", "PA", "PY", "PE", "PH", "PL", "PT", "SG", "SK", "ES", "SE", "CH", "TW", "TR", "UY", "US", "GB", "AD", "LI", "MC", "ID", "JP", "TH", "VN", "RO", "IL", "ZA", "SA", "AE", "BH", "QA", "OM", "KW", "EG", "MA", "DZ", "TN", "LB", "JO", "PS", "IN", "KZ", "MD", "UA", "AL", "BA", "HR", "ME", "MK", "RS", "SI", "KR", "BD", "PK", "LK", "GH", "KE", "NG", "TZ", "UG", "AG", "AM", "BS", "BB", "BZ", "BT", "BW", "BF", "CV", "CW", "DM", "FJ", "GM", "GE", "GD", "GW", "GY", "HT", "JM", "KI", "LS", "LR", "MW", "MV", "ML", "MH", "FM", "NA", "NR", "NE", "PW", "PG", "WS", "SM", "ST", "SN", "SC", "SL", "SB", "KN", "LC", "VC", "SR", "TL", "TO", "TT", "TV", "VU", "AZ", "BN", "BI", "KH", "CM", "TD", "KM", "GQ", "SZ", "GA", "GN", "KG", "LA", "MO", "MR", "MN", "NP", "RW", "TG", "UZ", "ZW", "BJ", "MG", "MU", "MZ", "AO", "CI", "DJ", "ZM", "CD", "CG", "IQ", "LY", "TJ", "VE", "ET", "XK"], "external_urls": {"spotify": "https://open.spotify.com/album/7CDx7wRXHEOVPREC1CiYXj"}, "href": "https://api.spotify.com/v1/albums/7CDx7wRXHEOVPREC1CiYXj", "id": "7CDx7wRXHEOVPREC1CiYXj", "images": [{"height": 640, "url": "https://i.scdn.co/image/ab67616d0000b2730d41ac3629a40e814cadf0a4", "width": 640}, {"height": 300, "url": "https://i.scdn.co/image/ab67616d00001e020d41ac3629a40e814cadf0a4", "width": 300}, {"height": 64, "url": "https://i.scdn.co/image/ab67616d000048510d41ac3629a40e814cadf0a4", "width": 64}], "name": "Platinum", "release_date": "2023-10-27", "release_date_precision": "day", "total_tracks": 44, "type": "album", "uri": "spotify:album:7CDx7wRXHEOVPREC1CiYXj"}, {"album_group": "album", "album_type": "album", "artists": [{"external_urls": {"spotify": "https://open.spotify.com/artist/1Mxqyy3pSjf8kZZL4QVxS0"}, "href": "https://api.spotify.com/v1/artists/1Mxqyy3pSjf8kZZL4QVxS0", "id": "1Mxqyy3pSjf8kZZL4QVxS0", "name": "Frank Sinatra", "type": "artist", "uri": "spotify:artist:1Mxqyy3pSjf8kZZL4QVxS0"}], "available_markets": ["AR", "AU", "AT", "BE", "BO", "BR", "BG", "CA", "CL", "CO", "CR", "CY", "CZ", "DK", "DO", "DE", "EC", "EE", "SV", "FI", "FR", "GR", "GT", "HN", "HK", "HU", "IS", "IE", "IT", "LV", "LT", "LU", "MY", "MT", "MX", "NL", "NZ", "NI", "NO", "PA", "PY", "PE", "PH", "PL", "PT", "SG", "SK", "ES", "SE", "CH", "TW", "TR", "UY", "US", "GB", "AD", "LI", "MC", "ID", "JP", "TH", "VN", "RO", "IL", "ZA", "SA", "AE", "BH", "QA", "OM", "KW", "EG", "MA", "DZ", "TN", "LB", "JO", "PS", "IN", "KZ", "MD", "UA", "AL", "BA", "HR", "ME", "MK", "RS", "SI", "KR", "BD", "PK", "LK", "GH", "KE", "NG", "TZ", "UG", "AG", "AM", "BS", "BB", "BZ", "BT", "BW", "BF", "CV", "CW", "DM", "FJ", "GM", "GE", "GD", "GW", "GY", "HT", "JM", "KI", "LS", "LR", "MW", "MV", "ML", "MH", "FM", "NA", "NR", "NE", "PW", "PG", "WS", "SM", "ST", "SN", "SC", "SL", "SB", "KN", "LC", "VC", "SR", "TL", "TO", "TT", "TV", "VU", "AZ", "BN", "BI", "KH", "CM", "TD", "KM", "GQ", "SZ", "GA", "GN", "KG", "LA", "MO", "MR", "MN", "NP", "RW", "TG", "UZ", "ZW", "BJ", "MG", "MU", "MZ", "AO", "CI", "DJ", "ZM", "CD", "CG", "IQ", "LY", "TJ", "VE", "ET", "XK"], "external_urls": {"spotify": "https://open.spotify.com/album/1r6CYUhkI07HNT5ONg6AqL"}, "href": "https://api.spotify.com/v1/albums/1r6CYUhkI07HNT5ONg6AqL", "id": "1r6CYUhkI07HNT5ONg6AqL", "images": [{"height": 640, "url": "https://i.scdn.co/image/ab67616d0000b2733d8e6802e8108a879302787d", "width": 640}, {"height": 300, "url": "https://i.scdn.co/image/ab67616d00001e023d8e6802e8108a879302787d", "width": 300}, {"height": 64, "url": "https://i.scdn.co/image/ab67616d000048513d8e6802e8108a879302787d", "width": 64}], "name": "Watertown (Deluxe Edition / 2022 Mix)", "release_date": "2022-06-03", "release_date_precision": "day", "total_tracks": 18, "type": "album", "uri": "spotify:album:1r6CYUhkI07HNT5ONg6AqL"}, {"album_group": "album", "album_type": "album", "artists": [{"external_urls": {"spotify": "https://open.spotify.com/artist/1Mxqyy3pSjf8kZZL4QVxS0"}, "href": "https://api.spotify.com/v1/artists/1Mxqyy3pSjf8kZZL4QVxS0", "id": "1Mxqyy3pSjf8kZZL4QVxS0", "name": "Frank Sinatra", "type": "artist", "uri": "spotify:artist:1Mxqyy3pSjf8kZZL4QVxS0"}], "available_markets": ["AR", "AU", "AT", "BE", "BO", "BR", "BG", "CA", "CL", "CO", "CR", "CY", "CZ", "DK", "DO", "DE", "EC", "EE", "SV", "FI", "FR", "GR", "GT", "HN", "HK", "HU", "IS", "IE", "IT", "LV", "LT", "LU", "MY", "MT", "MX", "NL", "NZ", "NI", "NO", "PA", "PY", "PE", "PH", "PL", "PT", "SG", "SK", "ES", "SE", "CH", "TW", "TR", "UY", "US", "GB", "AD", "LI", "MC", "ID", "JP", "TH", "VN", "RO", "IL", "ZA", "SA", "AE", "BH", "QA", "OM", "KW", "EG", "MA", "DZ", "TN", "LB", "JO", "PS", "IN", "BY", "KZ", "MD", "UA", "AL", "BA", "HR", "ME", "MK", "RS", "SI", "KR", "BD", "PK", "LK", "GH", "KE", "NG", "TZ", "UG", "AG", "AM", "BS", "BB", "BZ", "BT", "BW", "BF", "CV", "CW", "DM", "FJ", "GM", "GE", "GD", "GW", "GY", "HT", "JM", "KI", "LS", "LR", "MW", "MV", "ML", "MH", "FM", "NA", "NR", "NE", "PW", "PG", "WS", "SM", "ST", "SN", "SC", "SL", "SB", "KN", "LC", "VC", "SR", "TL", "TO", "TT", "TV", "VU", "AZ", "BN", "BI", "KH", "CM", "TD", "KM", "GQ", "SZ", "GA", "GN", "KG", "LA", "MO", "MR", "MN", "NP", "RW", "TG", "UZ", "ZW", "BJ", "MG", "MU", "MZ", "AO", "CI", "DJ", "ZM", "CD", "CG", "IQ", "LY", "TJ", "VE", "ET", "XK"], "external_urls": {"spotify": "https://open.spotify.com/album/5zQAZL3ru5PqHCEddrnSX2"}, "href": "https://api.spotify.com/v1/albums/5zQAZL3ru5PqHCEddrnSX2", "id": "5zQAZL3ru5PqHCEddrnSX2", "images": [{"height": 640, "url": "https://i.scdn.co/image/ab67616d0000b273c42a3d9b6daa17a1a7a1022b", "width": 640}, {"height": 300, "url": "https://i.scdn.co/image/ab67616d00001e02c42a3d9b6daa17a1a7a1022b", "width": 300}, {"height": 64, "url": "https://i.scdn.co/image/ab67616d00004851c42a3d9b6daa17a1a7a1022b", "width": 64}], "name": "Reprise Rarities (Vol. 5)", "release_date": "2021-09-24", "release_date_precision": "day", "total_tracks": 14, "type": "album", "uri": "spotify:album:5zQAZL3ru5PqHCEddrnSX2"}, {"album_group": "album", "album_type": "album", "artists": [{"external_urls": {"spotify": "https://open.spotify.com/artist/1Mxqyy3pSjf8kZZL4QVxS0"}, "href": "https://api.spotify.com/v1/artists/1Mxqyy3pSjf8kZZL4QVxS0", "id": "1Mxqyy3pSjf8kZZL4QVxS0", "name": "Frank Sinatra", "type": "artist", "uri": "spotify:artist:1Mxqyy3pSjf8kZZL4QVxS0"}], "available_markets": ["AR", "AU", "AT", "BE", "BO", "BR", "BG", "CA", "CL", "CO", "CR", "CY", "CZ", "DK", "DO", "DE", "EC", "EE", "SV", "FI", "FR", "GR", "GT", "HN", "HK", "HU", "IS", "IE", "IT", "LV", "LT", "LU", "MY", "MT", "MX", "NL", "NZ", "NI", "NO", "PA", "PY", "PE", "PH", "PL", "PT", "SG", "SK", "ES", "SE", "CH", "TW", "TR", "UY", "US", "GB", "AD", "LI", "MC", "ID", "JP", "TH", "VN", "RO", "IL", "ZA", "SA", "AE", "BH", "QA", "OM", "KW", "EG", "MA", "DZ", "TN", "LB", "JO", "PS", "IN", "BY", "KZ", "MD", "UA", "AL", "BA", "HR", "ME", "MK", "RS", "SI", "KR", "BD", "PK", "LK", "GH", "KE", "NG", "TZ", "UG", "AG", "AM", "BS", "BB", "BZ", "BT", "BW", "BF", "CV", "CW", "DM", "FJ", "GM", "GE", "GD", "GW", "GY", "HT", "JM", "KI", "LS", "LR", "MW", "MV", "ML", "MH", "FM", "NA", "NR", "NE", "PW", "PG", "WS", "SM", "ST", "SN", "SC", "SL", "SB", "KN", "LC", "VC", "SR", "TL", "TO", "TT", "TV", "VU", "AZ", "BN", "BI", "KH", "CM", "TD", "KM", "GQ", "SZ", "GA", "GN", "KG", "LA", "MO", "MR", "MN", "NP", "RW", "TG", "UZ", "ZW", "BJ", "MG", "MU", "MZ", "AO", "CI", "DJ", "ZM", "CD", "CG", "IQ", "LY", "TJ", "VE", "ET", "XK"], "external_urls": {"spotify": "https://open.spotify.com/album/2STGztEpuohYcNWYNLeJvn"}, "href": "https://api.spotify.com/v1/albums/2STGztEpuohYcNWYNLeJvn", "id": "2STGztEpuohYcNWYNLeJvn", "images": [{"height": 640, "url": "https://i.scdn.co/image/ab67616d0000b273be73e7f0e28a6f47989bb69c", "width": 640}, {"height": 300, "url": "https://i.scdn.co/image/ab67616d00001e02be73e7f0e28a6f47989bb69c", "width": 300}, {"height": 64, "url": "https://i.scdn.co/image/ab67616d00004851be73e7f0e28a6f47989bb69c", "width": 64}], "name": "Reprise Rarities (Vol. 4)", "release_date": "2021-08-06", "release_date_precision": "day", "total_tracks": 15, "type": "album", "uri": "spotify:album:2STGztEpuohYcNWYNLeJvn"}, {"album_group": "album", "album_type": "album", "artists": [{"external_urls": {"spotify": "https://open.spotify.com/artist/1Mxqyy3pSjf8kZZL4QVxS0"}, "href": "https://api.spotify.com/v1/artists/1Mxqyy3pSjf8kZZL4QVxS0", "id": "1Mxqyy3pSjf8kZZL4QVxS0", "name": "Frank Sinatra", "type": "artist", "uri": "spotify:artist:1Mxqyy3pSjf8kZZL4QVxS0"}], "available_markets": ["AR", "AU", "AT", "BE", "BO", "BR", "BG", "CA", "CL", "CO", "CR", "CY", "CZ", "DK", "DO", "DE", "EC", "EE", "SV", "FI", "FR", "GR", "GT", "HN", "HK", "HU", "IS", "IE", "IT", "LV", "LT", "LU", "MY", "MT", "MX", "NL", "NZ", "NI", "NO", "PA", "PY", "PE", "PH", "PL", "PT", "SG", "SK", "ES", "SE", "CH", "TW", "TR", "UY", "US", "GB", "AD", "LI", "MC", "ID", "JP", "TH", "VN", "RO", "IL", "ZA", "SA", "AE", "BH", "QA", "OM", "KW", "EG", "MA", "DZ", "TN", "LB", "JO", "PS", "IN", "BY", "KZ", "MD", "UA", "AL", "BA", "HR", "ME", "MK", "RS", "SI", "KR", "BD", "PK", "LK", "GH", "KE", "NG", "TZ", "UG", "AG", "AM", "BS", "BB", "BZ", "BT", "BW", "BF", "CV", "CW", "DM", "FJ", "GM", "GE", "GD", "GW", "GY", "HT", "JM", "KI", "LS", "LR", "MW", "MV", "ML", "MH", "FM", "NA", "NR", "NE", "PW", "PG", "WS", "SM", "ST", "SN", "SC", "SL", "SB", "KN", "LC", "VC", "SR", "TL", "TO", "TT", "TV", "VU", "AZ", "BN", "BI", "KH", "CM", "TD", "KM", "GQ", "SZ", "GA", "GN", "KG", "LA", "MO", "MR", "MN", "NP", "RW", "TG", "UZ", "ZW", "BJ", "MG", "MU", "MZ", "AO", "CI", "DJ", "ZM", "CD", "CG", "IQ", "LY", "TJ", "VE", "ET", "XK"], "external_urls": {"spotify": "https://open.spotify.com/album/6qrORtuBjx6f4d3oViVPgU"}, "href": "https://api.spotify.com/v1/albums/6qrORtuBjx6f4d3oViVPgU", "id": "6qrORtuBjx6f4d3oViVPgU", "images": [{"height": 640, "url": "https://i.scdn.co/image/ab67616d0000b27378b1ceefa7389a14f5cd44f4", "width": 640}, {"height": 300, "url": "https://i.scdn.co/image/ab67616d00001e0278b1ceefa7389a14f5cd44f4", "width": 300}, {"height": 64, "url": "https://i.scdn.co/image/ab67616d0000485178b1ceefa7389a14f5cd44f4", "width": 64}], "name": "Reprise Rarities (Vol. 3)", "release_date": "2021-05-07", "release_date_precision": "day", "total_tracks": 15, "type": "album", "uri": "spotify:album:6qrORtuBjx6f4d3oViVPgU"}], "limit": 5, "next": "https://api.spotify.com/v1/artists/1Mxqyy3pSjf8kZZL4QVxS0/albums?include_groups=album&offset=5&limit=5", "offset": 0, "previous": null, "total": 80}