{"href": "https://api.spotify.com/v1/artists/3AA28KZvwAUcZuOKwyblJQ/albums?include_groups=album&offset=0&limit=5", "items": [{"album_group": "album", "album_type": "album", "artists": [{"external_urls": {"spotify": "https://open.spotify.com/artist/3AA28KZvwAUcZuOKwyblJQ"}, "href": "https://api.spotify.com/v1/artists/3AA28KZvwAUcZuOKwyblJQ", "id": "3AA28KZvwAUcZuOKwyblJQ", "name": "Gorillaz", "type": "artist", "uri": "spotify:artist:3AA28KZvwAUcZuOKwyblJQ"}], "available_markets": ["AR", "AU", "AT", "BE", "BO", "BR", "BG", "CA", "CL", "CO", "CR", "CY", "CZ", "DK", "DO", "DE", "EC", "EE", "SV", "FI", "FR", "GR", "GT", "HN", "HK", "HU", "IS", "IE", "IT", "LV", "LT", "LU", "MY", "MT", "MX", "NL", "NZ", "NI", "NO", "PA", "PY", "PE", "PH", "PL", "PT", "SG", "SK", "ES", "SE", "CH", "TW", "TR", "UY", "US", "GB", "AD", "LI", "MC", "ID", "JP", "TH", "VN", "RO", "IL", "ZA", "SA", "AE", "BH", "QA", "OM", "KW", "EG", "MA", "DZ", "TN", "LB", "JO", "PS", "IN", "KZ", "MD", "UA", "AL", "BA", "HR", "ME", "MK", "RS", "SI", "KR", "BD", "PK", "LK", "GH", "KE", "NG", "TZ", "UG", "AG", "AM", "BS", "BB", "BZ", "BT", "BW", "BF", "CV", "CW", "DM", "FJ", "GM", "GE", "GD", "GW", "GY", "HT", "JM", "KI", "LS", "LR", "MW", "MV", "ML", "MH", "FM", "NA", "NR", "NE", "PW", "PG", "WS", "SM", "ST", "SN", "SC", "SL", "SB", "KN", "LC", "VC", "SR", "TL", "TO", "TT", "TV", "VU", "AZ", "BN", "BI", "KH", "CM", "TD", "KM", "GQ", "SZ", "GA", "GN", "KG", "LA", "MO", "MR", "MN", "NP", "RW", "TG", "UZ", "ZW", "BJ", "MG", "MU", "MZ", "AO", "CI", "DJ", "ZM", "CD", "CG", "IQ", "LY", "TJ", "VE", "ET", "XK"], "external_urls": {"spotify": "https://open.spotify.com/album/1aoWxOWHJNG1VPpJZwpYl2"}, "href": "https://api.spotify.com/v1/albums/1aoWxOWHJNG1VPpJZwpYl2", "id": "1aoWxOWHJNG1VPpJZwpYl2", "images": [{"height": 640, "url": "https://i.scdn.co/image/ab67616d0000b2735a2306367554ea80b2f0ca44", "width": 640}, {"height": 300, "url": "https://i.scdn.co/image/ab67616d00001e025a2306367554ea80b2f0ca44", "width": 300}, {"height": 64, "url": "https://i.scdn.co/image/ab67616d000048515a2306367554ea80b2f0ca44", "width": 64}], "name": "Cracker Island (Deluxe)", "release_date": "2023-02-27", "release_date_precision": "day", "total_tracks": 15, "type": "album", "uri": "spotify:album:1aoWxOWHJNG1VPpJZwpYl2"}, {"album_group": "album", "album_type": "album", "artists": [{"external_urls": {"spotify": "https://open.spotify.com/artist/3AA28KZvwAUcZuOKwyblJQ"}, "href": "https://api.spotify.com/v1/artists/3AA28KZvwAUcZuOKwyblJQ", "id": "3AA28KZvwAUcZuOKwyblJQ", "name": "Gorillaz", "type": "artist", "uri": "spotify:artist:3AA28KZvwAUcZuOKwyblJQ"}], "available_markets": ["AR", "AU", "AT", "BE", "BO", "BR", "BG", "CA", "CL", "CO", "CR", "CY", "CZ", "DK", "DO", "DE", "EC", "EE", "SV", "FI", "FR", "GR", "GT", "HN", "HK", "HU", "IS", "IE", "IT", "LV", "LT", "LU", "MY", "MT", "MX", "NL", "NZ", "NI", "NO", "PA", "PY", "PE", "PH", "PL", "PT", "SG", "SK", "ES", "SE", "CH", "TW", "TR", "UY", "US", "GB", "AD", "LI", "MC", "ID", "JP", "TH", "VN", "RO", "IL", "ZA", "SA", "AE", "BH", "QA", "OM", "KW", "EG", "MA", "DZ", "TN", "LB", "JO", "PS", "IN", "KZ", "MD", "UA", "AL", "BA", "HR", "ME", "MK", "RS", "SI", "KR", "BD", "PK", "LK", "GH", "KE", "NG", "TZ", "UG", "AG", "AM", "BS", "BB", "BZ", "BT", "BW", "BF", "CV", "CW", "DM", "FJ", "GM", "GE", "GD", "GW", "GY", "HT", "JM", "KI", "LS", "LR", "MW", "MV", "ML", "MH", "FM", "NA", "NR", "NE", "PW", "PG", "WS", "SM", "ST", "SN", "SC", "SL", "SB", "KN", "LC", "VC", "SR", "TL", "TO", "TT", "TV", "VU", "AZ", "BN", "BI", "KH", "CM", "TD", "KM", "GQ", "SZ", "GA", "GN", "KG", "LA", "MO", "MR", "MN", "NP", "RW", "TG", "UZ", "ZW", "BJ", "MG", "MU", "MZ", "AO", "CI", "DJ", "ZM", "CD", "CG", "IQ", "LY", "TJ", "VE", "ET", "XK"], "external_urls": {"spotify": "https://open.spotify.com/album/4wtZQMNTC1O79kDxMBsEan"}, "href": "https://api.spotify.com/v1/albums/4wtZQMNTC1O79kDxMBsEan", "id": "4wtZQMNTC1O79kDxMBsEan", "images": [{"height": 640, "url": "https://i.scdn.co/image/ab67616d0000b2734b0ddebba0d5b34f2a2f07a4", "width": 640}, {"height": 300, "url": "https://i.scdn.co/image/ab67616d00001e024b0ddebba0d5b34f2a2f07a4", "width": 300}, {"height": 64, "url": "https://i.scdn.co/image/ab67616d000048514b0ddebba0d5b34f2a2f07a4", "width": 64}], "name": "Cracker Island", "release_date": "2023-02-24", "release_date_precision": "day", "total_tracks": 10, "type": "album", "uri": "spotify:album:4wtZQMNTC1O79kDxMBsEan"}, {"album_group": "album", "album_type": "album", "artists": [{"external_urls": {"spotify": "https://open.spotify.com/artist/3AA28KZvwAUcZuOKwyblJQ"}, "href": "https://api.spotify.com/v1/artists/3AA28KZvwAUcZuOKwyblJQ", "id": "3AA28KZvwAUcZuOKwyblJQ", "name": "Gorillaz", "type": "artist", "uri": "spotify:artist:3AA28KZvwAUcZuOKwyblJQ"}], "available_markets": ["AR", "AU", "AT", "BE", "BO", "BR", "BG", "CA", "CL", "CO", "CR", "CY", "CZ", "DK", "DO", "DE", "EC", "EE", "SV", "FI", "FR", "GR", "GT", "HN", "HK", "HU", "IS", "IE", "IT", "LV", "LT", "LU", "MY", "MT", "MX", "NL", "NZ", "NI", "NO", "PA", "PY", "PE", "PH", "PL", "PT", "SG", "SK", "ES", "SE", "CH", "TW", "TR", "UY", "US", "GB", "AD", "LI", "MC", "ID", "TH", "VN", "RO", "IL", "ZA", "SA", "AE", "BH", "QA", "OM", "KW", "EG", "MA", "DZ", "TN", "LB", "JO", "PS", "IN", "BY", "KZ", "MD", "UA", "AL", "BA", "HR", "ME", "MK", "RS", "SI", "KR", "BD", "PK", "LK", "GH", "KE", "NG", "TZ", "UG", "AG", "AM", "BS", "BB", "BZ", "BT", "BW", "BF", "CV", "CW", "DM", "FJ", "GM", "GE", "GD", "GW", "GY", "HT", "JM", "KI", "LS", "LR", "MW", "MV", "ML", "MH", "FM", "NA", "NR", "NE", "PW", "PG", "WS", "SM", "ST", "SN", "SC", "SL", "SB", "KN", "LC", "VC", "SR", "TL", "TO", "TT", "TV", "VU", "AZ", "BN", "BI", "KH", "CM", "TD", "KM", "GQ", "SZ", "GA", "GN", "KG", "LA", "MO", "MR", "MN", "NP", "RW", "TG", "UZ", "ZW", "BJ", "MG", "MU", "MZ", "AO", "CI", "DJ", "ZM", "CD", "CG", "IQ", "LY", "TJ", "VE", "ET", "XK"], "external_urls": {"spotify": "https://open.spotify.com/album/5I9K0u8r52jp4Y2bF8mOaz"}, "href": "https://api.spotify.com/v1/albums/5I9K0u8r52jp4Y2bF8mOaz", "id": "5I9K0u8r52jp4Y2bF8mOaz", "images": [{"height": 640, "url": "https://i.scdn.co/image/ab67616d0000b27305a3c11cb2cb7c60d30316a3", "width": 640}, {"height": 300, "url": "https://i.scdn.co/image/ab67616d00001e0205a3c11cb2cb7c60d30316a3", "width": 300}, {"height": 64, "url": "https://i.scdn.co/image/ab67616d0000485105a3c11cb2cb7c60d30316a3", "width": 64}], "name": "Song Machine, Season One: Strange Timez (Deluxe)", "release_date": "2020-10-23", "release_date_precision": "day", "total_tracks": 17, "type": "album", "uri": "spotify:album:5I9K0u8r52jp4Y2bF8mOaz"}, {"album_group": "album", "album_type": "album", "artists": [{"external_urls": {"spotify": "https://open.spotify.com/artist/3AA28KZvwAUcZuOKwyblJQ"}, "href": "https://api.spotify.com/v1/artists/3AA28KZvwAUcZuOKwyblJQ", "id": "3AA28KZvwAUcZuOKwyblJQ", "name": "Gorillaz", "type": "artist", "uri": "spotify:artist:3AA28KZvwAUcZuOKwyblJQ"}], "available_markets": ["AR", "AU", "AT", "BE", "BO", "BR", "BG", "CA", "CL", "CO", "CR", "CY", "CZ", "DK", "DO", "DE", "EC", "EE", "SV", "FI", "FR", "GR", "GT", "HN", "HK", "HU", "IS", "IE", "IT", "LV", "LT", "LU", "MY", "MT", "MX", "NL", "NZ", "NI", "NO", "PA", "PY", "PE", "PH", "PL", "PT", "SG", "SK", "ES", "SE", "CH", "TW", "TR", "UY", "US", "GB", "AD", "LI", "MC", "ID", "JP", "TH", "VN", "RO", "IL", "ZA", "SA", "AE", "BH", "QA", "OM", "KW", "EG", "MA", "DZ", "TN", "LB", "JO", "PS", "IN", "BY", "KZ", "MD", "UA", "AL", "BA", "HR", "ME", "MK", "RS", "SI", "KR", "BD", "PK", "LK", "GH", "KE", "NG", "TZ", "UG", "AG", "AM", "BS", "BB", "BZ", "BT", "BW", "BF", "CV", "CW", "DM", "FJ", "GM", "GE", "GD", "GW", "GY", "HT", "JM", "KI", "LS", "LR", "MW", "MV", "ML", "MH", "FM", "NA", "NR", "NE", "PW", "PG", "WS", "SM", "ST", "SN", "SC", "SL", "SB", "KN", "LC", "VC", "SR", "TL", "TO", "TT", "TV", "VU", "AZ", "BN", "BI", "KH", "CM", "TD", "KM", "GQ", "SZ", "GA", "GN", "KG", "LA", "MO", "MR", "MN", "NP", "RW", "TG", "UZ", "ZW", "BJ", "MG", "MU", "MZ", "AO", "CI", "DJ", "ZM", "CD", "CG", "IQ", "LY", "TJ", "VE", "ET", "XK"], "external_urls": {"spotify": "https://open.spotify.com/album/1amYhlukNF8WdaQC3gKkgL"}, "href": "https://api.spotify.com/v1/albums/1amYhlukNF8WdaQC3gKkgL", "id": "1amYhlukNF8WdaQC3gKkgL", "images": [{"height": 640, "url": "https://i.scdn.co/image/ab67616d0000b2734d9f7b88e82db31d13ac6668", "width": 640}, {"height": 300, "url": "https://i.scdn.co/image/ab67616d00001e024d9f7b88e82db31d13ac6668", "width": 300}, {"height": 64, "url": "https://i.scdn.co/image/ab67616d000048514d9f7b88e82db31d13ac6668", "width": 64}], "name": "The Now Now", "release_date": "2018-06-29", "release_date_precision": "day", "total_tracks": 11, "type": "album", "uri": "spotify:album:1amYhlukNF8WdaQC3gKkgL"}, {"album_group": "album", "album_type": "album", "artists": [{"external_urls": {"spotify": "https://open.spotify.com/artist/3AA28KZvwAUcZuOKwyblJQ"}, "href": "https://api.spotify.com/v1/artists/3AA28KZvwAUcZuOKwyblJQ", "id": "3AA28KZvwAUcZuOKwyblJQ", "name": "Gorillaz", "type": "artist", "uri": "spotify:artist:3AA28KZvwAUcZuOKwyblJQ"}], "available_markets": ["AR", "AU", "AT", "BE", "BO", "BR", "BG", "CA", "CL", "CO", "CR", "CY", "CZ", "DK", "DO", "DE", "EC", "EE", "SV", "FI", "FR", "GR", "GT", "HN", "HK", "HU", "IS", "IE", "IT", "LV", "LT", "LU", "MY", "MT", "MX", "NL", "NZ", "NI", "NO", "PA", "PY", "PE", "PH", "PL", "PT", "SG", "SK", "ES", "SE", "CH", "TW", "TR", "UY", "US", "GB", "AD", "LI", "MC", "ID", "JP", "TH", "VN", "RO", "IL", "ZA", "SA", "AE", "BH", "QA", "OM", "KW", "EG", "MA", "DZ", "TN", "LB", "JO", "PS", "IN", "BY", "KZ", "MD", "UA", "AL", "BA", "HR", "ME", "MK", "RS", "SI", "KR", "BD", "PK", "LK", "GH", "KE", "NG", "TZ", "UG", "AG", "AM", "BS", "BB", "BZ", "BT", "BW", "BF", "CV", "CW", "DM", "FJ", "GM", "GE", "GD", "GW", "GY", "HT", "JM", "KI", "LS", "LR", "MW", "MV", "ML", "MH", "FM", "NA", "NR", "NE", "PW", "PG", "WS", "SM", "ST", "SN", "SC", "SL", "SB", "KN", "LC", "VC", "SR", "TL", "TO", "TT", "TV", "VU", "AZ", "BN", "BI", "KH", "CM", "TD", "KM", "GQ", "SZ", "GA", "GN", "KG", "LA", "MO", "MR", "MN", "NP", "RW", "TG", "UZ", "ZW", "BJ", "MG", "MU", "MZ", "AO", "CI", "DJ", "ZM", "CD", "CG", "IQ", "LY", "TJ", "VE", "ET", "XK"], "external_urls": {"spotify": "https://open.spotify.com/album/0NvirtaDCaZU5PAW1O5FDE"}, "href": "https://api.spotify.com/v1/albums/0NvirtaDCaZU5PAW1O5FDE", "id": "0NvirtaDCaZU5PAW1O5FDE", "images": [{"height": 640, "url": "https://i.scdn.co/image/ab67616d0000b273a5952c0e2e649f588603b743", "width": 640}, {"height": 300, "url": "https://i.scdn.co/image/ab67616d00001e02a5952c0e2e649f588603b743", "width": 300}, {"height": 64, "url": "https://i.scdn.co/image/ab67616d00004851a5952c0e2e649f588603b743", "width": 64}], "name": "Humanz (Deluxe)", "release_date": "2017-04-28", "release_date_precision": "day", "total_tracks": 26, "type": "album", "uri": "spotify:album:0NvirtaDCaZU5PAW1O5FDE"}], "limit": 5, "next": "https://api.spotify.com/v1/artists/3AA28KZvwAUcZuOKwyblJQ/albums?include_groups=album&offset=5&limit=5", "offset": 0, "previous": null, "total": 13}