{"href": "https://api.spotify.com/v1/artists/6ltzsmQQbmdoHHbLZ4ZN25/albums?include_groups=album&offset=0&limit=5", "items": [{"album_group": "album", "album_type": "album", "artists": [{"external_urls": {"spotify": "https://open.spotify.com/artist/6ltzsmQQbmdoHHbLZ4ZN25"}, "href": "https://api.spotify.com/v1/artists/6ltzsmQQbmdoHHbLZ4ZN25", "id": "6ltzsmQQbmdoHHbLZ4ZN25", "name": "Lord Huron", "type": "artist", "uri": "spotify:artist:6ltzsmQQbmdoHHbLZ4ZN25"}, {"external_urls": {"spotify": "https://open.spotify.com/artist/501ebBxChWPmTwFhmZzOLh"}, "href": "https://api.spotify.com/v1/artists/501ebBxChWPmTwFhmZzOLh", "id": "501ebBxChWPmTwFhmZzOLh", "name": "Ben Schneider", "type": "artist", "uri": "spotify:artist:501ebBxChWPmTwFhmZzOLh"}], "available_markets": ["AR", "AU", "AT", "BE", "BO", "BR", "BG", "CA", "CL", "CO", "CR", "CY", "CZ", "DK", "DO", "DE", "EC", "EE", "SV", "FI", "FR", "GR", "GT", "HN", "HK", "HU", "IS", "IE", "IT", "LV", "LT", "LU", "MY", "MT", "MX", "NL", "NZ", "NI", "NO", "PA", "PY", "PE", "PH", "PL", "PT", "SG", "SK", "ES", "SE", "CH", "TW", "TR", "UY", "US", "GB", "AD", "LI", "MC", "ID", "JP", "TH", "VN", "RO", "IL", "ZA", "SA", "AE", "BH", "QA", "OM", "KW", "EG", "MA", "DZ", "TN", "LB", "JO", "PS", "IN", "KZ", "MD", "UA", "AL", "BA", "HR", "ME", "MK", "RS", "SI", "KR", "BD", "PK", "LK", "GH", "KE", "NG", "TZ", "UG", "AG", "AM", "BS", "BB", "BZ", "BT", "BW", "BF", "CV", "CW", "DM", "FJ", "GM", "GE", "GD", "GW", "GY", "HT", "JM", "KI", "LS", "LR", "MW", "MV", "ML", "MH", "FM", "NA", "NR", "NE", "PW", "PG", "WS", "SM", "ST", "SN", "SC", "SL", "SB", "KN", "LC", "VC", "SR", "TL", "TO", "TT", "TV", "VU", "AZ", "BN", "BI", "KH", "CM", "TD", "KM", "GQ", "SZ", "GA", "GN", "KG", "LA", "MO", "MR", "MN", "NP", "RW", "TG", "UZ", "ZW", "BJ", "MG", "MU", "MZ", "AO", "CI", "DJ", "ZM", "CD", "CG", "IQ", "LY", "TJ", "VE", "ET", "XK"], "external_urls": {"spotify": "https://open.spotify.com/album/1mDpO84TgiUxVHI81x8h36"}, "href": "https://api.spotify.com/v1/albums/1mDpO84TgiUxVHI81x8h36", "id": "1mDpO84TgiUxVHI81x8h36", "images": [{"height": 640, "url": "https://i.scdn.co/image/ab67616d0000b27355c5c67fe8d27796dac94f03", "width": 640}, {"height": 300, "url": "https://i.scdn.co/image/ab67616d00001e0255c5c67fe8d27796dac94f03", "width": 300}, {"height": 64, "url": "https://i.scdn.co/image/ab67616d0000485155c5c67fe8d27796dac94f03", "width": 64}], "name": "Music for The Starling Girl (Score & Music from the Original Motion Picture)", "release_date": "2023-07-11", "release_date_precision": "day", "total_tracks": 14, "type": "album", "uri": "spotify:album:1mDpO84TgiUxVHI81x8h36"}, {"album_group": "album", "album_type": "album", "artists": [{"external_urls": {"spotify": "https://open.spotify.com/artist/6ltzsmQQbmdoHHbLZ4ZN25"}, "href": "https://api.spotify.com/v1/artists/6ltzsmQQbmdoHHbLZ4ZN25", "id": "6ltzsmQQbmdoHHbLZ4ZN25", "name": "Lord Huron", "type": "artist", "uri": "spotify:artist:6ltzsmQQbmdoHHbLZ4ZN25"}], "available_markets": ["AR", "AT", "BE", "BO", "BR", "BG", "CA", "CL", "CO", "CR", "CY", "CZ", "DK", "DO", "DE", "EC", "EE", "SV", "FI", "FR", "GR", "GT", "HN", "HK", "HU", "IS", "IE", "IT", "LV", "LT", "LU", "MY", "MT", "MX", "NL", "NI", "NO", "PA", "PY", "PE", "PH", "PL", "PT", "SG", "SK", "ES", "SE", "CH", "TW", "TR", "UY", "US", "GB", "AD", "LI", "MC", "ID", "JP", "TH", "VN", "RO", "IL", "ZA", "SA", "AE", "BH", "QA", "OM", "KW", "EG", "MA", "DZ", "TN", "LB", "JO", "PS", "IN", "KZ", "MD", "UA", "AL", "BA", "HR", "ME", "MK", "RS", "SI", "KR", "BD", "PK", "LK", "GH", "KE", "NG", "TZ", "UG", "AG", "AM", "BS", "BB", "BZ", "BT", "BW", "BF", "CV", "CW", "DM", "FJ", "GM", "GE", "GD", "GW", "GY", "HT", "JM", "KI", "LS", "LR", "MW", "MV", "ML", "MH", "FM", "NA", "NR", "NE", "PW", "PG", "WS", "SM", "ST", "SN", "SC", "SL", "SB", "KN", "LC", "VC", "SR", "TL", "TO", "TT", "TV", "VU", "AZ", "BN", "BI", "KH", "CM", "TD", "KM", "GQ", "SZ", "GA", "GN", "KG", "LA", "MO", "MR", "MN", "NP", "RW", "TG", "UZ", "ZW", "BJ", "MG", "MU", "MZ", "AO", "CI", "DJ", "ZM", "CD", "CG", "IQ", "LY", "TJ", "VE", "ET", "XK"], "external_urls": {"spotify": "https://open.spotify.com/album/6yEdJA4H2O4VOi4pk14GdS"}, "href": "https://api.spotify.com/v1/albums/6yEdJA4H2O4VOi4pk14GdS", "id": "6yEdJA4H2O4VOi4pk14GdS", "images": [{"height": 640, "url": "https://i.scdn.co/image/ab67616d0000b273537cc35d181312bea5141e00", "width": 640}, {"height": 300, "url": "https://i.scdn.co/image/ab67616d00001e02537cc35d181312bea5141e00", "width": 300}, {"height": 64, "url": "https://i.scdn.co/image/ab67616d00004851537cc35d181312bea5141e00", "width": 64}], "name": "Long Lost (Deluxe Edition)", "release_date": "2022-05-25", "release_date_precision": "day", "total_tracks": 18, "type": "album", "uri": "spotify:album:6yEdJA4H2O4VOi4pk14GdS"}, {"album_group": "album", "album_type": "album", "artists": [{"external_urls": {"spotify": "https://open.spotify.com/artist/6ltzsmQQbmdoHHbLZ4ZN25"}, "href": "https://api.spotify.com/v1/artists/6ltzsmQQbmdoHHbLZ4ZN25", "id": "6ltzsmQQbmdoHHbLZ4ZN25", "name": "Lord Huron", "type": "artist", "uri": "spotify:artist:6ltzsmQQbmdoHHbLZ4ZN25"}], "available_markets": ["AR", "AT", "BE", "BO", "BR", "BG", "CA", "CL", "CO", "CR", "CY", "CZ", "DK", "DO", "DE", "EC", "EE", "SV", "FI", "FR", "GR", "GT", "HN", "HK", "HU", "IS", "IE", "IT", "LV", "LT", "LU", "MY", "MT", "MX", "NL", "NI", "NO", "PA", "PY", "PE", "PH", "PL", "PT", "SG", "SK", "ES", "SE", "CH", "TW", "TR", "UY", "US", "GB", "AD", "LI", "MC", "ID", "JP", "TH", "VN", "RO", "IL", "ZA", "SA", "AE", "BH", "QA", "OM", "KW", "EG", "MA", "DZ", "TN", "LB", "JO", "PS", "IN", "BY", "KZ", "MD", "UA", "AL", "BA", "HR", "ME", "MK", "RS", "SI", "KR", "BD", "PK", "LK", "GH", "KE", "NG", "TZ", "UG", "AG", "AM", "BS", "BB", "BZ", "BT", "BW", "BF", "CV", "CW", "DM", "FJ", "GM", "GE", "GD", "GW", "GY", "HT", "JM", "KI", "LS", "LR", "MW", "MV", "ML", "MH", "FM", "NA", "NR", "NE", "PW", "PG", "WS", "SM", "ST", "SN", "SC", "SL", "SB", "KN", "LC", "VC", "SR", "TL", "TO", "TT", "TV", "VU", "AZ", "BN", "BI", "KH", "CM", "TD", "KM", "GQ", "SZ", "GA", "GN", "KG", "LA", "MO", "MR", "MN", "NP", "RW", "TG", "UZ", "ZW", "BJ", "MG", "MU", "MZ", "AO", "CI", "DJ", "ZM", "CD", "CG", "IQ", "LY", "TJ", "VE", "ET", "XK"], "external_urls": {"spotify": "https://open.spotify.com/album/5xiePX6kXj5ZsmUsqIqzeD"}, "href": "https://api.spotify.com/v1/albums/5xiePX6kXj5ZsmUsqIqzeD", "id": "5xiePX6kXj5ZsmUsqIqzeD", "images": [{"height": 640, "url": "https://i.scdn.co/image/ab67616d0000b2731c18ab47e15a19af3246a792", "width": 640}, {"height": 300, "url": "https://i.scdn.co/image/ab67616d00001e021c18ab47e15a19af3246a792", "width": 300}, {"height": 64, "url": "https://i.scdn.co/image/ab67616d000048511c18ab47e15a19af3246a792", "width": 64}], "name": "Long Lost", "release_date": "2021-05-21", "release_date_precision": "day", "total_tracks": 16, "type": "album", "uri": "spotify:album:5xiePX6kXj5ZsmUsqIqzeD"}, {"album_group": "album", "album_type": "album", "artists": [{"external_urls": {"spotify": "https://open.spotify.com/artist/6ltzsmQQbmdoHHbLZ4ZN25"}, "href": "https://api.spotify.com/v1/artists/6ltzsmQQbmdoHHbLZ4ZN25", "id": "6ltzsmQQbmdoHHbLZ4ZN25", "name": "Lord Huron", "type": "artist", "uri": "spotify:artist:6ltzsmQQbmdoHHbLZ4ZN25"}], "available_markets": ["AR", "AT", "BE", "BO", "BR", "BG", "CA", "CL", "CO", "CR", "CY", "CZ", "DK", "DO", "DE", "EC", "EE", "SV", "FI", "FR", "GR", "GT", "HN", "HK", "HU", "IS", "IE", "IT", "LV", "LT", "LU", "MY", "MT", "MX", "NL", "NI", "NO", "PA", "PY", "PE", "PH", "PL", "PT", "SG", "SK", "ES", "SE", "CH", "TW", "TR", "UY", "US", "GB", "AD", "LI", "MC", "ID", "JP", "TH", "VN", "RO", "IL", "ZA", "SA", "AE", "BH", "QA", "OM", "KW", "EG", "MA", "DZ", "TN", "LB", "JO", "PS", "IN", "BY", "KZ", "MD", "UA", "AL", "BA", "HR", "ME", "MK", "RS", "SI", "KR", "BD", "PK", "LK", "GH", "KE", "NG", "TZ", "UG", "AG", "AM", "BS", "BB", "BZ", "BT", "BW", "BF", "CV", "CW", "DM", "FJ", "GM", "GE", "GD", "GW", "GY", "HT", "JM", "KI", "LS", "LR", "MW", "MV", "ML", "MH", "FM", "NA", "NR", "NE", "PW", "PG", "WS", "SM", "ST", "SN", "SC", "SL", "SB", "KN", "LC", "VC", "SR", "TL", "TO", "TT", "TV", "VU", "AZ", "BN", "BI", "KH", "CM", "TD", "KM", "GQ", "SZ", "GA", "GN", "KG", "LA", "MO", "MR", "MN", "NP", "RW", "TG", "UZ", "ZW", "BJ", "MG", "MU", "MZ", "AO", "CI", "DJ", "ZM", "CD", "CG", "IQ", "LY", "TJ", "VE", "ET", "XK"], "external_urls": {"spotify": "https://open.spotify.com/album/2oiJM8vFGpxrtGtFfJWhJv"}, "href": "https://api.spotify.com/v1/albums/2oiJM8vFGpxrtGtFfJWhJv", "id": "2oiJM8vFGpxrtGtFfJWhJv", "images": [{"height": 640, "url": "https://i.scdn.co/image/ab67616d0000b2738431866429dc2ad6eed8c51e", "width": 640}, {"height": 300, "url": "https://i.scdn.co/image/ab67616d00001e028431866429dc2ad6eed8c51e", "width": 300}, {"height": 64, "url": "https://i.scdn.co/image/ab67616d000048518431866429dc2ad6eed8c51e", "width": 64}], "name": "Vide Noir", "release_date": "2018-04-20", "release_date_precision": "day", "total_tracks": 12, "type": "album", "uri": "spotify:album:2oiJM8vFGpxrtGtFfJWhJv"}, {"album_group": "album", "album_type": "album", "artists": [{"external_urls": {"spotify": "https://open.spotify.com/artist/6ltzsmQQbmdoHHbLZ4ZN25"}, "href": "https://api.spotify.com/v1/artists/6ltzsmQQbmdoHHbLZ4ZN25", "id": "6ltzsmQQbmdoHHbLZ4ZN25", "name": "Lord Huron", "type": "artist", "uri": "spotify:artist:6ltzsmQQbmdoHHbLZ4ZN25"}], "available_markets": ["CA", "US"], "external_urls": {"spotify": "https://open.spotify.com/album/3yoNZlqerJnsnMN5EDwwBS"}, "href": "https://api.spotify.com/v1/albums/3yoNZlqerJnsnMN5EDwwBS", "id": "3yoNZlqerJnsnMN5EDwwBS", "images": [{"height": 640, "url": "https://i.scdn.co/image/ab67616d0000b2739d2efe43d5b7ebc7cb60ca81", "width": 640}, {"height": 300, "url": "https://i.scdn.co/image/ab67616d00001e029d2efe43d5b7ebc7cb60ca81", "width": 300}, {"height": 64, "url": "https://i.scdn.co/image/ab67616d000048519d2efe43d5b7ebc7cb60ca81", "width": 64}], "name": "Strange Trails", "release_date": "2015-04-07", "release_date_precision": "day", "total_tracks": 14, "type": "album", "uri": "spotify:album:3yoNZlqerJnsnMN5EDwwBS"}], "limit": 5, "next": "https://api.spotify.com/v1/artists/6ltzsmQQbmdoHHbLZ4ZN25/albums?include_groups=album&offset=5&limit=5", "offset": 0, "previous": null, "total": 6}