{"href": "https://api.spotify.com/v1/artists/5YGY8feqx7naU7z4HrwZM6/albums?include_groups=album&offset=0&limit=5", "items": [{"album_group": "album", "album_type": "album", "artists": [{"external_urls": {"spotify": "https://open.spotify.com/artist/5YGY8feqx7naU7z4HrwZM6"}, "href": "https://api.spotify.com/v1/artists/5YGY8feqx7naU7z4HrwZM6", "id": "5YGY8feqx7naU7z4HrwZM6", "name": "Miley Cyrus", "type": "artist", "uri": "spotify:artist:5YGY8feqx7naU7z4HrwZM6"}], "available_markets": ["AR", "AU", "AT", "BE", "BO", "BR", "BG", "CA", "CL", "CO", "CR", "CY", "CZ", "DK", "DO", "DE", "EC", "EE", "SV", "FI", "FR", "GR", "GT", "HN", "HK", "HU", "IS", "IE", "IT", "LV", "LT", "LU", "MY", "MT", "MX", "NL", "NZ", "NI", "NO", "PA", "PY", "PE", "PH", "PL", "PT", "SG", "SK", "ES", "SE", "CH", "TW", "TR", "UY", "US", "GB", "AD", "LI", "MC", "ID", "JP", "TH", "VN", "RO", "IL", "ZA", "SA", "AE", "BH", "QA", "OM", "KW", "EG", "MA", "DZ", "TN", "LB", "JO", "PS", "IN", "BY", "KZ", "MD", "UA", "AL", "BA", "HR", "ME", "MK", "RS", "SI", "KR", "BD", "PK", "LK", "GH", "KE", "NG", "TZ", "UG", "AG", "AM", "BS", "BB", "BZ", "BT", "BW", "BF", "CV", "CW", "DM", "FJ", "GM", "GE", "GD", "GW", "GY", "HT", "JM", "KI", "LS", "LR", "MW", "MV", "ML", "MH", "FM", "NA", "NR", "NE", "PW", "PG", "WS", "SM", "ST", "SN", "SC", "SL", "SB", "KN", "LC", "VC", "SR", "TL", "TO", "TT", "TV", "VU", "AZ", "BN", "BI", "KH", "CM", "TD", "KM", "GQ", "SZ", "GA", "GN", "KG", "LA", "MO", "MR", "MN", "NP", "RW", "TG", "UZ", "ZW", "BJ", "MG", "MU", "MZ", "AO", "CI", "DJ", "ZM", "CD", "CG", "IQ", "LY", "TJ", "VE", "ET", "XK"], "external_urls": {"spotify": "https://open.spotify.com/album/5DvJgsMLbaR1HmAI6VhfcQ"}, "href": "https://api.spotify.com/v1/albums/5DvJgsMLbaR1HmAI6VhfcQ", "id": "5DvJgsMLbaR1HmAI6VhfcQ", "images": [{"height": 640, "url": "https://i.scdn.co/image/ab67616d0000b273cd222052a2594be29a6616b5", "width": 640}, {"height": 300, "url": "https://i.scdn.co/image/ab67616d00001e02cd222052a2594be29a6616b5", "width": 300}, {"height": 64, "url": "https://i.scdn.co/image/ab67616d00004851cd222052a2594be29a6616b5", "width": 64}], "name": "Endless Summer Vacation", "release_date": "2023-08-18", "release_date_precision": "day", "total_tracks": 14, "type": "album", "uri": "spotify:album:5DvJgsMLbaR1HmAI6VhfcQ"}, {"album_group": "album", "album_type": "album", "artists": [{"external_urls": {"spotify": "https://open.spotify.com/artist/5YGY8feqx7naU7z4HrwZM6"}, "href": "https://api.spotify.com/v1/artists/5YGY8feqx7naU7z4HrwZM6", "id": "5YGY8feqx7naU7z4HrwZM6", "name": "Miley Cyrus", "type": "artist", "uri": "spotify:artist:5YGY8feqx7naU7z4HrwZM6"}], "available_markets": ["AR", "AU", "AT", "BE", "BO", "BR", "BG", "CA", "CL", "CO", "CR", "CY", "CZ", "DK", "DO", "DE", "EC", "EE", "SV", "FI", "FR", "GR", "GT", "HN", "HK", "HU", "IS", "IE", "IT", "LV", "LT", "LU", "MY", "MT", "MX", "NL", "NZ", "NI", "NO", "PA", "PY", "PE", "PH", "PL", "PT", "SG", "SK", "ES", "SE", "CH", "TW", "TR", "UY", "US", "GB", "AD", "LI", "MC", "ID", "JP", "TH", "VN", "RO", "IL", "ZA", "SA", "AE", "BH", "QA", "OM", "KW", "EG", "MA", "DZ", "TN", "LB", "JO", "PS", "IN", "BY", "KZ", "MD", "UA", "AL", "BA", "HR", "ME", "MK", "RS", "SI", "KR", "BD", "PK", "LK", "GH", "KE", "NG", "TZ", "UG", "AG", "AM", "BS", "BB", "BZ", "BT", "BW", "BF", "CV", "CW", "DM", "FJ", "GM", "GE", "GD", "GW", "GY", "HT", "JM", "KI", "LS", "LR", "MW", "MV", "ML", "MH", "FM", "NA", "NR", "NE", "PW", "PG", "WS", "SM", "ST", "SN", "SC", "SL", "SB", "KN", "LC", "VC", "SR", "TL", "TO", "TT", "TV", "VU", "AZ", "BN", "BI", "KH", "CM", "TD", "KM", "GQ", "SZ", "GA", "GN", "KG", "LA", "MO", "MR", "MN", "NP", "RW", "TG", "UZ", "ZW", "BJ", "MG", "MU", "MZ", "AO", "CI", "DJ", "ZM", "CD", "CG", "IQ", "LY", "TJ", "VE", "ET", "XK"], "external_urls": {"spotify": "https://open.spotify.com/album/5G5s00CN4Kmxz340ED2WL2"}, "href": "https://api.spotify.com/v1/albums/5G5s00CN4Kmxz340ED2WL2", "id": "5G5s00CN4Kmxz340ED2WL2", "images": [{"height": 640, "url": "https://i.scdn.co/image/ab67616d0000b2730cb72bf16e0692468d81465b", "width": 640}, {"height": 300, "url": "https://i.scdn.co/image/ab67616d00001e020cb72bf16e0692468d81465b", "width": 300}, {"height": 64, "url": "https://i.scdn.co/image/ab67616d000048510cb72bf16e0692468d81465b", "width": 64}], "name": "ATTENTION: MILEY LIVE", "release_date": "2022-04-29", "release_date_precision": "day", "total_tracks": 26, "type": "album", "uri": "spotify:album:5G5s00CN4Kmxz340ED2WL2"}, {"album_group": "album", "album_type": "album", "artists": [{"external_urls": {"spotify": "https://open.spotify.com/artist/5YGY8feqx7naU7z4HrwZM6"}, "href": "https://api.spotify.com/v1/artists/5YGY8feqx7naU7z4HrwZM6", "id": "5YGY8feqx7naU7z4HrwZM6", "name": "Miley Cyrus", "type": "artist", "uri": "spotify:artist:5YGY8feqx7naU7z4HrwZM6"}], "available_markets": ["AR", "AU", "AT", "BE", "BO", "BR", "BG", "CA", "CL", "CO", "CR", "CY", "CZ", "DK", "DO", "DE", "EC", "EE", "SV", "FI", "FR", "GR", "GT", "HN", "HK", "HU", "IS", "IE", "IT", "LV", "LT", "LU", "MY", "MT", "MX", "NL", "NZ", "NI", "NO", "PA", "PY", "PE", "PH", "PL", "PT", "SG", "SK", "ES", "SE", "CH", "TW", "TR", "UY", "US", "GB", "AD", "LI", "MC", "ID", "JP", "TH", "VN", "RO", "IL", "ZA", "SA", "AE", "BH", "QA", "OM", "KW", "EG", "MA", "DZ", "TN", "LB", "JO", "PS", "IN", "BY", "KZ", "MD", "UA", "AL", "BA", "HR", "ME", "MK", "RS", "SI", "KR", "BD", "PK", "LK", "GH", "KE", "NG", "TZ", "UG", "AG", "AM", "BS", "BB", "BZ", "BT", "BW", "BF", "CV", "CW", "DM", "FJ", "GM", "GE", "GD", "GW", "GY", "HT", "JM", "KI", "LS", "LR", "MW", "MV", "ML", "MH", "FM", "NA", "NR", "NE", "PW", "PG", "WS", "SM", "ST", "SN", "SC", "SL", "SB", "KN", "LC", "VC", "SR", "TL", "TO", "TT", "TV", "VU", "AZ", "BN", "BI", "KH", "CM", "TD", "KM", "GQ", "SZ", "GA", "GN", "KG", "LA", "MO", "MR", "MN", "NP", "RW", "TG", "UZ", "ZW", "BJ", "MG", "MU", "MZ", "AO", "CI", "DJ", "ZM", "CD", "CG", "IQ", "LY", "TJ", "VE", "ET", "XK"], "external_urls": {"spotify": "https://open.spotify.com/album/5BRhg6NSEZOj0BR6Iz56fR"}, "href": "https://api.spotify.com/v1/albums/5BRhg6NSEZOj0BR6Iz56fR", "id": "5BRhg6NSEZOj0BR6Iz56fR", "images": [{"height": 640, "url": "https://i.scdn.co/image/ab67616d0000b2738cffb7c6c40759eaf8a5a142", "width": 640}, {"height": 300, "url": "https://i.scdn.co/image/ab67616d00001e028cffb7c6c40759eaf8a5a142", "width": 300}, {"height": 64, "url": "https://i.scdn.co/image/ab67616d000048518cffb7c6c40759eaf8a5a142", "width": 64}], "name": "Plastic Hearts", "release_date": "2020-11-27", "release_date_precision": "day", "total_tracks": 15, "type": "album", "uri": "spotify:album:5BRhg6NSEZOj0BR6Iz56fR"}, {"album_group": "album", "album_type": "album", "artists": [{"external_urls": {"spotify": "https://open.spotify.com/artist/5YGY8feqx7naU7z4HrwZM6"}, "href": "https://api.spotify.com/v1/artists/5YGY8feqx7naU7z4HrwZM6", "id": "5YGY8feqx7naU7z4HrwZM6", "name": "Miley Cyrus", "type": "artist", "uri": "spotify:artist:5YGY8feqx7naU7z4HrwZM6"}], "available_markets": ["AR", "AU", "AT", "BE", "BO", "BR", "BG", "CA", "CL", "CO", "CR", "CY", "CZ", "DK", "DO", "DE", "EC", "EE", "SV", "FI", "FR", "GR", "GT", "HN", "HK", "HU", "IS", "IE", "IT", "LV", "LT", "LU", "MY", "MT", "MX", "NL", "NZ", "NI", "NO", "PA", "PY", "PE", "PH", "PL", "PT", "SG", "SK", "ES", "SE", "CH", "TW", "TR", "UY", "US", "GB", "AD", "LI", "MC", "ID", "JP", "TH", "VN", "RO", "IL", "ZA", "SA", "AE", "BH", "QA", "OM", "KW", "EG", "MA", "DZ", "TN", "LB", "JO", "PS", "IN", "BY", "KZ", "MD", "UA", "AL", "BA", "HR", "ME", "MK", "RS", "SI", "KR", "BD", "PK", "LK", "GH", "KE", "NG", "TZ", "UG", "AG", "AM", "BS", "BB", "BZ", "BT", "BW", "BF", "CV", "CW", "DM", "FJ", "GM", "GE", "GD", "GW", "GY", "HT", "JM", "KI", "LS", "LR", "MW", "MV", "ML", "MH", "FM", "NA", "NR", "NE", "PW", "PG", "WS", "SM", "ST", "SN", "SC", "SL", "SB", "KN", "LC", "VC", "SR", "TL", "TO", "TT", "TV", "VU", "AZ", "BN", "BI", "KH", "CM", "TD", "KM", "GQ", "SZ", "GA", "GN", "KG", "LA", "MO", "MR", "MN", "NP", "RW", "TG", "UZ", "ZW", "BJ", "MG", "MU", "MZ", "AO", "CI", "DJ", "ZM", "CD", "CG", "IQ", "LY", "TJ", "VE", "ET", "XK"], "external_urls": {"spotify": "https://open.spotify.com/album/45wbw92Z6V8G8iPKFzSEPN"}, "href": "https://api.spotify.com/v1/albums/45wbw92Z6V8G8iPKFzSEPN", "id": "45wbw92Z6V8G8iPKFzSEPN", "images": [{"height": 640, "url": "https://i.scdn.co/image/ab67616d0000b2734ddcd4e2f9e71125af2fa97c", "width": 640}, {"height": 300, "url": "https://i.scdn.co/image/ab67616d00001e024ddcd4e2f9e71125af2fa97c", "width": 300}, {"height": 64, "url": "https://i.scdn.co/image/ab67616d000048514ddcd4e2f9e71125af2fa97c", "width": 64}], "name": "SHE IS COMING", "release_date": "2019-05-31", "release_date_precision": "day", "total_tracks": 7, "type": "album", "uri": "spotify:album:45wbw92Z6V8G8iPKFzSEPN"}, {"album_group": "album", "album_type": "album", "artists": [{"external_urls": {"spotify": "https://open.spotify.com/artist/5YGY8feqx7naU7z4HrwZM6"}, "href": "https://api.spotify.com/v1/artists/5YGY8feqx7naU7z4HrwZM6", "id": "5YGY8feqx7naU7z4HrwZM6", "name": "Miley Cyrus", "type": "artist", "uri": "spotify:artist:5YGY8feqx7naU7z4HrwZM6"}], "available_markets": ["AR", "AU", "AT", "BE", "BO", "BR", "BG", "CA", "CL", "CO", "CR", "CY", "CZ", "DK", "DO", "DE", "EC", "EE", "SV", "FI", "FR", "GR", "GT", "HN", "HK", "HU", "IS", "IE", "IT", "LV", "LT", "LU", "MY", "MT", "MX", "NL", "NZ", "NI", "NO", "PA", "PY", "PE", "PH", "PL", "PT", "SG", "SK", "ES", "SE", "CH", "TW", "TR", "UY", "US", "GB", "AD", "LI", "MC", "ID", "JP", "TH", "VN", "RO", "IL", "ZA", "SA", "AE", "BH", "QA", "OM", "KW", "EG", "MA", "DZ", "TN", "LB", "JO", "PS", "IN", "BY", "KZ", "MD", "UA", "AL", "BA", "HR", "ME", "MK", "RS", "SI", "KR", "BD", "PK", "LK", "GH", "KE", "NG", "TZ", "UG", "AG", "AM", "BS", "BB", "BZ", "BT", "BW", "BF", "CV", "CW", "DM", "FJ", "GM", "GE", "GD", "GW", "GY", "HT", "JM", "KI", "LS", "LR", "MW", "MV", "ML", "MH", "FM", "NA", "NR", "NE", "PW", "PG", "WS", "SM", "ST", "SN", "SC", "SL", "SB", "KN", "LC", "VC", "SR", "TL", "TO", "TT", "TV", "VU", "AZ", "BN", "BI", "KH", "CM", "TD", "KM", "GQ", "SZ", "GA", "GN", "KG", "LA", "MO", "MR", "MN", "NP", "RW", "TG", "UZ", "ZW", "BJ", "MG", "MU", "MZ", "AO", "CI", "DJ", "ZM", "CD", "CG", "IQ", "LY", "TJ", "VE", "ET", "XK"], "external_urls": {"spotify": "https://open.spotify.com/album/5xG9gJcs9ut3qDWezHUlsX"}, "href": "https://api.spotify.com/v1/albums/5xG9gJcs9ut3qDWezHUlsX", "id": "5xG9gJcs9ut3qDWezHUlsX", "images": [{"height": 640, "url": "https://i.scdn.co/image/ab67616d0000b2739012e092ad8ed4731ea11134", "width": 640}, {"height": 300, "url": "https://i.scdn.co/image/ab67616d00001e029012e092ad8ed4731ea11134", "width": 300}, {"height": 64, "url": "https://i.scdn.co/image/ab67616d000048519012e092ad8ed4731ea11134", "width": 64}], "name": "Younger Now", "release_date": "2017-09-29", "release_date_precision": "day", "total_tracks": 11, "type": "album", "uri": "spotify:album:5xG9gJcs9ut3qDWezHUlsX"}], "limit": 5, "next": "https://api.spotify.com/v1/artists/5YGY8feqx7naU7z4HrwZM6/albums?include_groups=album&offset=5&limit=5", "offset": 0, "previous": null, "total": 11}