{"href": "https://api.spotify.com/v1/artists/20JZFwl6HVl6yg8a4H3ZqK/albums?include_groups=album&offset=0&limit=5", "items": [{"album_group": "album", "album_type": "album", "artists": [{"external_urls": {"spotify": "https://open.spotify.com/artist/20JZFwl6HVl6yg8a4H3ZqK"}, "href": "https://api.spotify.com/v1/artists/20JZFwl6HVl6yg8a4H3ZqK", "id": "20JZFwl6HVl6yg8a4H3ZqK", "name": "Panic! At The Disco", "type": "artist", "uri": "spotify:artist:20JZFwl6HVl6yg8a4H3ZqK"}], "available_markets": ["AR", "AU", "AT", "BE", "BO", "BR", "BG", "CA", "CL", "CO", "CR", "CY", "CZ", "DK", "DO", "DE", "EC", "EE", "SV", "FI", "FR", "GR", "GT", "HN", "HK", "HU", "IS", "IE", "IT", "LV", "LT", "LU", "MY", "MT", "MX", "NL", "NZ", "NI", "NO", "PA", "PY", "PE", "PH", "PL", "PT", "SG", "SK", "ES", "SE", "CH", "TW", "TR", "UY", "US", "GB", "AD", "LI", "MC", "ID", "JP", "TH", "VN", "RO", "IL", "ZA", "SA", "AE", "BH", "QA", "OM", "KW", "EG", "MA", "DZ", "TN", "LB", "JO", "PS", "IN", "KZ", "MD", "UA", "AL", "BA", "HR", "ME", "MK", "RS", "SI", "KR", "BD", "PK", "LK", "GH", "KE", "NG", "TZ", "UG", "AG", "AM", "BS", "BB", "BZ", "BT", "BW", "BF", "CV", "CW", "DM", "FJ", "GM", "GE", "GD", "GW", "GY", "HT", "JM", "KI", "LS", "LR", "MW", "MV", "ML", "MH", "FM", "NA", "NR", "NE", "PW", "PG", "WS", "SM", "ST", "SN", "SC", "SL", "SB", "KN", "LC", "VC", "SR", "TL", "TO", "TT", "TV", "VU", "AZ", "BN", "BI", "KH", "CM", "TD", "KM", "GQ", "SZ", "GA", "GN", "KG", "LA", "MO", "MR", "MN", "NP", "RW", "TG", "UZ", "ZW", "BJ", "MG", "MU", "MZ", "AO", "CI", "DJ", "ZM", "CD", "CG", "IQ", "LY", "TJ", "VE", "ET", "XK"], "external_urls": {"spotify": "https://open.spotify.com/album/25DhBz5cckEAFcivcSzSTo"}, "href": "https://api.spotify.com/v1/albums/25DhBz5cckEAFcivcSzSTo", "id": "25DhBz5cckEAFcivcSzSTo", "images": [{"height": 640, "url": "https://i.scdn.co/image/ab67616d0000b2739e4e71f09bb7902fd182bbc1", "width": 640}, {"height": 300, "url": "https://i.scdn.co/image/ab67616d00001e029e4e71f09bb7902fd182bbc1", "width": 300}, {"height": 64, "url": "https://i.scdn.co/image/ab67616d000048519e4e71f09bb7902fd182bbc1", "width": 64}], "name": "Viva Las Vengeance", "release_date": "2022-08-19", "release_date_precision": "day", "total_tracks": 12, "type": "album", "uri": "spotify:album:25DhBz5cckEAFcivcSzSTo"}, {"album_group": "album", "album_type": "album", "artists": [{"external_urls": {"spotify": "https://open.spotify.com/artist/20JZFwl6HVl6yg8a4H3ZqK"}, "href": "https://api.spotify.com/v1/artists/20JZFwl6HVl6yg8a4H3ZqK", "id": "20JZFwl6HVl6yg8a4H3ZqK", "name": "Panic! At The Disco", "type": "artist", "uri": "spotify:artist:20JZFwl6HVl6yg8a4H3ZqK"}], "available_markets": ["AR", "AU", "AT", "BE", "BO", "BR", "BG", "CA", "CL", "CO", "CR", "CY", "CZ", "DK", "DO", "DE", "EC", "EE", "SV", "FI", "FR", "GR", "GT", "HN", "HK", "HU", "IS", "IE", "IT", "LV", "LT", "LU", "MY", "MT", "MX", "NL", "NZ", "NI", "NO", "PA", "PY", "PE", "PH", "PL", "PT", "SG", "SK", "ES", "SE", "CH", "TW", "TR", "UY", "US", "GB", "AD", "LI", "MC", "ID", "JP", "TH", "VN", "RO", "IL", "ZA", "SA", "AE", "BH", "QA", "OM", "KW", "EG", "MA", "DZ", "TN", "LB", "JO", "PS", "IN", "BY", "KZ", "MD", "UA", "AL", "BA", "HR", "ME", "MK", "RS", "SI", "KR", "BD", "PK", "LK", "GH", "KE", "NG", "TZ", "UG", "AG", "AM", "BS", "BB", "BZ", "BT", "BW", "BF", "CV", "CW", "DM", "FJ", "GM", "GE", "GD", "GW", "GY", "HT", "JM", "KI", "LS", "LR", "MW", "MV", "ML", "MH", "FM", "NA", "NR", "NE", "PW", "PG", "WS", "SM", "ST", "SN", "SC", "SL", "SB", "KN", "LC", "VC", "SR", "TL", "TO", "TT", "TV", "VU", "AZ", "BN", "BI", "KH", "CM", "TD", "KM", "GQ", "SZ", "GA", "GN", "KG", "LA", "MO", "MR", "MN", "NP", "RW", "TG", "UZ", "ZW", "BJ", "MG", "MU", "MZ", "AO", "CI", "DJ", "ZM", "CD", "CG", "IQ", "LY", "TJ", "VE", "ET", "XK"], "external_urls": {"spotify": "https://open.spotify.com/album/6ApYSpXF8GxZAgBTHDzYge"}, "href": "https://api.spotify.com/v1/albums/6ApYSpXF8GxZAgBTHDzYge", "id": "6ApYSpXF8GxZAgBTHDzYge", "images": [{"height": 640, "url": "https://i.scdn.co/image/ab67616d0000b273c5148520a59be191eea16989", "width": 640}, {"height": 300, "url": "https://i.scdn.co/image/ab67616d00001e02c5148520a59be191eea16989", "width": 300}, {"height": 64, "url": "https://i.scdn.co/image/ab67616d00004851c5148520a59be191eea16989", "width": 64}], "name": "Pray for the Wicked", "release_date": "2018-06-22", "release_date_precision": "day", "total_tracks": 11, "type": "album", "uri": "spotify:album:6ApYSpXF8GxZAgBTHDzYge"}, {"album_group": "album", "album_type": "album", "artists": [{"external_urls": {"spotify": "https://open.spotify.com/artist/20JZFwl6HVl6yg8a4H3ZqK"}, "href": "https://api.spotify.com/v1/artists/20JZFwl6HVl6yg8a4H3ZqK", "id": "20JZFwl6HVl6yg8a4H3ZqK", "name": "Panic! At The Disco", "type": "artist", "uri": "spotify:artist:20JZFwl6HVl6yg8a4H3ZqK"}], "available_markets": ["AR", "AU", "AT", "BE", "BO", "BR", "BG", "CA", "CL", "CO", "CR", "CY", "CZ", "DK", "DO", "DE", "EC", "EE", "SV", "FI", "FR", "GR", "GT", "HN", "HK", "HU", "IS", "IE", "IT", "LV", "LT", "LU", "MY", "MT", "MX", "NL", "NZ", "NI", "NO", "PA", "PY", "PE", "PH", "PL", "PT", "SG", "SK", "ES", "SE", "CH", "TW", "TR", "UY", "US", "GB", "AD", "LI", "MC", "ID", "JP", "TH", "VN", "RO", "IL", "ZA", "SA", "AE", "BH", "QA", "OM", "KW", "EG", "MA", "DZ", "TN", "LB", "JO", "PS", "IN", "BY", "KZ", "MD", "UA", "AL", "BA", "HR", "ME", "MK", "RS", "SI", "KR", "BD", "PK", "LK", "GH", "KE", "NG", "TZ", "UG", "AG", "AM", "BS", "BB", "BZ", "BT", "BW", "BF", "CV", "CW", "DM", "FJ", "GM", "GE", "GD", "GW", "GY", "HT", "JM", "KI", "LS", "LR", "MW", "MV", "ML", "MH", "FM", "NA", "NR", "NE", "PW", "PG", "WS", "SM", "ST", "SN", "SC", "SL", "SB", "KN", "LC", "VC", "SR", "TL", "TO", "TT", "TV", "VU", "AZ", "BN", "BI", "KH", "CM", "TD", "KM", "GQ", "SZ", "GA", "GN", "KG", "LA", "MO", "MR", "MN", "NP", "RW", "TG", "UZ", "ZW", "BJ", "MG", "MU", "MZ", "AO", "CI", "DJ", "ZM", "CD", "CG", "IQ", "LY", "TJ", "VE", "ET", "XK"], "external_urls": {"spotify": "https://open.spotify.com/album/2VnKzCESTePshnbUALlDt2"}, "href": "https://api.spotify.com/v1/albums/2VnKzCESTePshnbUALlDt2", "id": "2VnKzCESTePshnbUALlDt2", "images": [{"height": 640, "url": "https://i.scdn.co/image/ab67616d0000b273a2146ef219fdd3d4d8b5f993", "width": 640}, {"height": 300, "url": "https://i.scdn.co/image/ab67616d00001e02a2146ef219fdd3d4d8b5f993", "width": 300}, {"height": 64, "url": "https://i.scdn.co/image/ab67616d00004851a2146ef219fdd3d4d8b5f993", "width": 64}], "name": "All My Friends We're Glorious: Death of a Bachelor Tour Live", "release_date": "2017-12-15", "release_date_precision": "day", "total_tracks": 21, "type": "album", "uri": "spotify:album:2VnKzCESTePshnbUALlDt2"}, {"album_group": "album", "album_type": "album", "artists": [{"external_urls": {"spotify": "https://open.spotify.com/artist/20JZFwl6HVl6yg8a4H3ZqK"}, "href": "https://api.spotify.com/v1/artists/20JZFwl6HVl6yg8a4H3ZqK", "id": "20JZFwl6HVl6yg8a4H3ZqK", "name": "Panic! At The Disco", "type": "artist", "uri": "spotify:artist:20JZFwl6HVl6yg8a4H3ZqK"}], "available_markets": ["AR", "AU", "AT", "BE", "BO", "BR", "BG", "CA", "CL", "CO", "CR", "CY", "CZ", "DK", "DO", "DE", "EC", "EE", "SV", "FI", "FR", "GR", "GT", "HN", "HK", "HU", "IS", "IE", "IT", "LV", "LT", "LU", "MY", "MT", "MX", "NL", "NZ", "NI", "NO", "PA", "PY", "PE", "PH", "PL", "PT", "SG", "SK", "ES", "SE", "CH", "TW", "TR", "UY", "US", "GB", "AD", "LI", "MC", "ID", "JP", "TH", "VN", "RO", "IL", "ZA", "SA", "AE", "BH", "QA", "OM", "KW", "EG", "MA", "DZ", "TN", "LB", "JO", "PS", "IN", "BY", "KZ", "MD", "UA", "AL", "BA", "HR", "ME", "MK", "RS", "SI", "KR", "BD", "PK", "LK", "GH", "KE", "NG", "TZ", "UG", "AG", "AM", "BS", "BB", "BZ", "BT", "BW", "BF", "CV", "CW", "DM", "FJ", "GM", "GE", "GD", "GW", "GY", "HT", "JM", "KI", "LS", "LR", "MW", "MV", "ML", "MH", "FM", "NA", "NR", "NE", "PW", "PG", "WS", "SM", "ST", "SN", "SC", "SL", "SB", "KN", "LC", "VC", "SR", "TL", "TO", "TT", "TV", "VU", "AZ", "BN", "BI", "KH", "CM", "TD", "KM", "GQ", "SZ", "GA", "GN", "KG", "LA", "MO", "MR", "MN", "NP", "RW", "TG", "UZ", "ZW", "BJ", "MG", "MU", "MZ", "AO", "CI", "DJ", "ZM", "CD", "CG", "IQ", "LY", "TJ", "VE", "ET", "XK"], "external_urls": {"spotify": "https://open.spotify.com/album/6twKQ0EsUJHVlAr6XBylrj"}, "href": "https://api.spotify.com/v1/albums/6twKQ0EsUJHVlAr6XBylrj", "id": "6twKQ0EsUJHVlAr6XBylrj", "images": [{"height": 640, "url": "https://i.scdn.co/image/ab67616d0000b27323152d9337d6c57b116ed13a", "width": 640}, {"height": 300, "url": "https://i.scdn.co/image/ab67616d00001e0223152d9337d6c57b116ed13a", "width": 300}, {"height": 64, "url": "https://i.scdn.co/image/ab67616d0000485123152d9337d6c57b116ed13a", "width": 64}], "name": "Death of a Bachelor", "release_date": "2016-01-15", "release_date_precision": "day", "total_tracks": 11, "type": "album", "uri": "spotify:album:6twKQ0EsUJHVlAr6XBylrj"}, {"album_group": "album", "album_type": "album", "artists": [{"external_urls": {"spotify": "https://open.spotify.com/artist/20JZFwl6HVl6yg8a4H3ZqK"}, "href": "https://api.spotify.com/v1/artists/20JZFwl6HVl6yg8a4H3ZqK", "id": "20JZFwl6HVl6yg8a4H3ZqK", "name": "Panic! At The Disco", "type": "artist", "uri": "spotify:artist:20JZFwl6HVl6yg8a4H3ZqK"}], "available_markets": ["AR", "AU", "AT", "BE", "BO", "BR", "BG", "CA", "CL", "CO", "CR", "CY", "CZ", "DK", "DO", "DE", "EC", "EE", "SV", "FI", "FR", "GR", "GT", "HN", "HK", "HU", "IS", "IE", "IT", "LV", "LT", "LU", "MY", "MT", "MX", "NL", "NZ", "NI", "NO", "PA", "PY", "PE", "PH", "PL", "PT", "SG", "SK", "ES", "SE", "CH", "TW", "TR", "UY", "US", "GB", "AD", "LI", "MC", "ID", "JP", "TH", "VN", "RO", "IL", "ZA", "SA", "AE", "BH", "QA", "OM", "KW", "EG", "MA", "DZ", "TN", "LB", "JO", "PS", "IN", "BY", "KZ", "MD", "UA", "AL", "BA", "HR", "ME", "MK", "RS", "SI", "KR", "BD", "PK", "LK", "GH", "KE", "NG", "TZ", "UG", "AG", "AM", "BS", "BB", "BZ", "BW", "BF", "CV", "CW", "DM", "FJ", "GM", "GE", "GD", "GW", "HT", "JM", "LS", "LR", "MW", "ML", "FM", "NA", "NE", "PG", "SM", "ST", "SN", "SC", "SL", "KN", "LC", "VC", "TL", "TT", "AZ", "BN", "BI", "KH", "CM", "TD", "KM", "GQ", "SZ", "GA", "GN", "KG", "LA", "MO", "MR", "MN", "NP", "RW", "TG", "UZ", "ZW", "BJ", "MG", "MU", "MZ", "AO", "CI", "DJ", "ZM", "CD", "CG", "IQ", "LY", "TJ", "VE", "ET", "XK"], "external_urls": {"spotify": "https://open.spotify.com/album/1hxraaWEf3wFnJxADf8Dge"}, "href": "https://api.spotify.com/v1/albums/1hxraaWEf3wFnJxADf8Dge", "id": "1hxraaWEf3wFnJxADf8Dge", "images": [{"height": 640, "url": "https://i.scdn.co/image/ab67616d0000b2733d01f39642426b65217fbe21", "width": 640}, {"height": 300, "url": "https://i.scdn.co/image/ab67616d00001e023d01f39642426b65217fbe21", "width": 300}, {"height": 64, "url": "https://i.scdn.co/image/ab67616d000048513d01f39642426b65217fbe21", "width": 64}], "name": "Too Weird to Live, Too Rare to Die!", "release_date": "2013-10-04", "release_date_precision": "day", "total_tracks": 10, "type": "album", "uri": "spotify:album:1hxraaWEf3wFnJxADf8Dge"}], "limit": 5, "next": "https://api.spotify.com/v1/artists/20JZFwl6HVl6yg8a4H3ZqK/albums?include_groups=album&offset=5&limit=5", "offset": 0, "previous": null, "total": 9}