{"href": "https://api.spotify.com/v1/artists/06HL4z0CvFAxyc27GXpf02/albums?include_groups=album&offset=0&limit=5", "items": [{"album_group": "album", "album_type": "album", "artists": [{"external_urls": {"spotify": "https://open.spotify.com/artist/06HL4z0CvFAxyc27GXpf02"}, "href": "https://api.spotify.com/v1/artists/06HL4z0CvFAxyc27GXpf02", "id": "06HL4z0CvFAxyc27GXpf02", "name": "Taylor Swift", "type": "artist", "uri": "spotify:artist:06HL4z0CvFAxyc27GXpf02"}], "available_markets": ["AR", "AU", "AT", "BE", "BO", "BR", "BG", "CA", "CL", "CO", "CR", "CY", "CZ", "DK", "DO", "DE", "EC", "EE", "SV", "FI", "FR", "GR", "GT", "HN", "HK", "HU", "IS", "IE", "IT", "LV", "LT", "LU", "MY", "MT", "MX", "NL", "NZ", "NI", "NO", "PA", "PY", "PE", "PH", "PL", "PT", "SG", "SK", "ES", "SE", "CH", "TW", "TR", "UY", "US", "GB", "AD", "LI", "MC", "ID", "JP", "TH", "VN", "RO", "IL", "ZA", "SA", "AE", "BH", "QA", "OM", "KW", "EG", "MA", "DZ", "TN", "LB", "JO", "PS", "IN", "KZ", "MD", "UA", "AL", "BA", "HR", "ME", "MK", "RS", "SI", "KR", "BD", "PK", "LK", "GH", "KE", "NG", "TZ", "UG", "AG", "AM", "BS", "BB", "BZ", "BT", "BW", "BF", "CV", "CW", "DM", "FJ", "GM", "GE", "GD", "GW", "GY", "HT", "JM", "KI", "LS", "LR", "MW", "MV", "ML", "MH", "FM", "NA", "NR", "NE", "PW", "PG", "WS", "SM", "ST", "SN", "SC", "SL", "SB", "KN", "LC", "VC", "SR", "TL", "TO", "TT", "TV", "VU", "AZ", "BN", "BI", "KH", "CM", "TD", "KM", "GQ", "SZ", "GA", "GN", "KG", "LA", "MO", "MR", "MN", "NP", "RW", "TG", "UZ", "ZW", "BJ", "MG", "MU", "MZ", "AO", "CI", "DJ", "ZM", "CD", "CG", "IQ", "LY", "TJ", "VE", "ET", "XK"], "external_urls": {"spotify": "https://open.spotify.com/album/1o59UpKw81iHR0HPiSkJR0"}, "href": "https://api.spotify.com/v1/albums/1o59UpKw81iHR0HPiSkJR0", "id": "1o59UpKw81iHR0HPiSkJR0", "images": [{"height": 640, "url": "https://i.scdn.co/image/ab67616d0000b273dc2bacae1dca83d26e2b1949", "width": 640}, {"height": 300, "url": "https://i.scdn.co/image/ab67616d00001e02dc2bacae1dca83d26e2b1949", "width": 300}, {"height": 64, "url": "https://i.scdn.co/image/ab67616d00004851dc2bacae1dca83d26e2b1949", "width": 64}], "name": "1989 (Taylor's Version) [Deluxe]", "release_date": "2023-10-27", "release_date_precision": "day", "total_tracks": 22, "type": "album", "uri": "spotify:album:1o59UpKw81iHR0HPiSkJR0"}, {"album_group": "album", "album_type": "album", "artists": [{"external_urls": {"spotify": "https://open.spotify.com/artist/06HL4z0CvFAxyc27GXpf02"}, "href": "https://api.spotify.com/v1/artists/06HL4z0CvFAxyc27GXpf02", "id": "06HL4z0CvFAxyc27GXpf02", "name": "Taylor Swift", "type": "artist", "uri": "spotify:artist:06HL4z0CvFAxyc27GXpf02"}], "available_markets": ["AR", "AU", "AT", "BE", "BO", "BR", "BG", "CA", "CL", "CO", "CR", "CY", "CZ", "DK", "DO", "DE", "EC", "EE", "SV", "FI", "FR", "GR", "GT", "HN", "HK", "HU", "IS", "IE", "IT", "LV", "LT", "LU", "MY", "MT", "MX", "NL", "NZ", "NI", "NO", "PA", "PY", "PE", "PH", "PL", "PT", "SG", "SK", "ES", "SE", "CH", "TW", "TR", "UY", "US", "GB", "AD", "LI", "MC", "ID", "JP", "TH", "VN", "RO", "IL", "ZA", "SA", "AE", "BH", "QA", "OM", "KW", "EG", "MA", "DZ", "TN", "LB", "JO", "PS", "IN", "KZ", "MD", "UA", "AL", "BA", "HR", "ME", "MK", "RS", "SI", "KR", "BD", "PK", "LK", "GH", "KE", "NG", "TZ", "UG", "AG", "AM", "BS", "BB", "BZ", "BT", "BW", "BF", "CV", "CW", "DM", "FJ", "GM", "GE", "GD", "GW", "GY", "HT", "JM", "KI", "LS", "LR", "MW", "MV", "ML", "MH", "FM", "NA", "NR", "NE", "PW", "PG", "WS", "SM", "ST", "SN", "SC", "SL", "SB", "KN", "LC", "VC", "SR", "TL", "TO", "TT", "TV", "VU", "AZ", "BN", "BI", "KH", "CM", "TD", "KM", "GQ", "SZ", "GA", "GN", "KG", "LA", "MO", "MR", "MN", "NP", "RW", "TG", "UZ", "ZW", "BJ", "MG", "MU", "MZ", "AO", "CI", "DJ", "ZM", "CD", "CG", "IQ", "LY", "TJ", "VE", "ET", "XK"], "external_urls": {"spotify": "https://open.spotify.com/album/64LU4c1nfjz1t4VnGhagcg"}, "href": "https://api.spotify.com/v1/albums/64LU4c1nfjz1t4VnGhagcg", "id": "64LU4c1nfjz1t4VnGhagcg", "images": [{"height": 640, "url": "https://i.scdn.co/image/ab67616d0000b273904445d70d04eb24d6bb79ac", "width": 640}, {"height": 300, "url": "https://i.scdn.co/image/ab67616d00001e02904445d70d04eb24d6bb79ac", "width": 300}, {"height": 64, "url": "https://i.scdn.co/image/ab67616d00004851904445d70d04eb24d6bb79ac", "width": 64}], "name": "1989 (Taylor's Version)", "release_date": "2023-10-26", "release_date_precision": "day", "total_tracks": 21, "type": "album", "uri": "spotify:album:64LU4c1nfjz1t4VnGhagcg"}, {"album_group": "album", "album_type": "album", "artists": [{"external_urls": {"spotify": "https://open.spotify.com/artist/06HL4z0CvFAxyc27GXpf02"}, "href": "https://api.spotify.com/v1/artists/06HL4z0CvFAxyc27GXpf02", "id": "06HL4z0CvFAxyc27GXpf02", "name": "Taylor Swift", "type": "artist", "uri": "spotify:artist:06HL4z0CvFAxyc27GXpf02"}], "available_markets": ["AR", "AU", "AT", "BE", "BO", "BR", "BG", "CA", "CL", "CO", "CR", "CY", "CZ", "DK", "DO", "DE", "EC", "EE", "SV", "FI", "FR", "GR", "GT", "HN", "HK", "HU", "IS", "IE", "IT", "LV", "LT", "LU", "MY", "MT", "MX", "NL", "NZ", "NI", "NO", "PA", "PY", "PE", "PH", "PL", "PT", "SG", "SK", "ES", "SE", "CH", "TW", "TR", "UY", "US", "GB", "AD", "LI", "MC", "ID", "JP", "TH", "VN", "RO", "IL", "ZA", "SA", "AE", "BH", "QA", "OM", "KW", "EG", "MA", "DZ", "TN", "LB", "JO", "PS", "IN", "KZ", "MD", "UA", "AL", "BA", "HR", "ME", "MK", "RS", "SI", "KR", "BD", "PK", "LK", "GH", "KE", "NG", "TZ", "UG", "AG", "AM", "BS", "BB", "BZ", "BT", "BW", "BF", "CV", "CW", "DM", "FJ", "GM", "GE", "GD", "GW", "GY", "HT", "JM", "KI", "LS", "LR", "MW", "MV", "ML", "MH", "FM", "NA", "NR", "NE", "PW", "PG", "WS", "SM", "ST", "SN", "SC", "SL", "SB", "KN", "LC", "VC", "SR", "TL", "TO", "TT", "TV", "VU", "AZ", "BN", "BI", "KH", "CM", "TD", "KM", "GQ", "SZ", "GA", "GN", "KG", "LA", "MO", "MR", "MN", "NP", "RW", "TG", "UZ", "ZW", "BJ", "MG", "MU", "MZ", "AO", "CI", "DJ", "ZM", "CD", "CG", "IQ", "LY", "TJ", "VE", "ET", "XK"], "external_urls": {"spotify": "https://open.spotify.com/album/5AEDGbliTTfjOB8TSm1sxt"}, "href": "https://api.spotify.com/v1/albums/5AEDGbliTTfjOB8TSm1sxt", "id": "5AEDGbliTTfjOB8TSm1sxt", "images": [{"height": 640, "url": "https://i.scdn.co/image/ab67616d0000b2730b04da4f224b51ff86e0a481", "width": 640}, {"height": 300, "url": "https://i.scdn.co/image/ab67616d00001e020b04da4f224b51ff86e0a481", "width": 300}, {"height": 64, "url": "https://i.scdn.co/image/ab67616d000048510b04da4f224b51ff86e0a481", "width": 64}], "name": "Speak Now (Taylor's Version)", "release_date": "2023-07-07", "release_date_precision": "day", "total_tracks": 22, "type": "album", "uri": "spotify:album:5AEDGbliTTfjOB8TSm1sxt"}, {"album_group": "album", "album_type": "album", "artists": [{"external_urls": {"spotify": "https://open.spotify.com/artist/06HL4z0CvFAxyc27GXpf02"}, "href": "https://api.spotify.com/v1/artists/06HL4z0CvFAxyc27GXpf02", "id": "06HL4z0CvFAxyc27GXpf02", "name": "Taylor Swift", "type": "artist", "uri": "spotify:artist:06HL4z0CvFAxyc27GXpf02"}], "available_markets": ["AR", "AU", "AT", "BE", "BO", "BR", "BG", "CA", "CL", "CO", "CR", "CY", "CZ", "DK", "DO", "DE", "EC", "EE", "SV", "FI", "FR", "GR", "GT", "HN", "HK", "HU", "IS", "IE", "IT", "LV", "LT", "LU", "MY", "MT", "MX", "NL", "NZ", "NI", "NO", "PA", "PY", "PE", "PH", "PL", "PT", "SG", "SK", "ES", "SE", "CH", "TW", "TR", "UY", "US", "GB", "AD", "LI", "MC", "ID", "JP", "TH", "VN", "RO", "IL", "ZA", "SA", "AE", "BH", "QA", "OM", "KW", "EG", "MA", "DZ", "TN", "LB", "JO", "PS", "IN", "KZ", "MD", "UA", "AL", "BA", "HR", "ME", "MK", "RS", "SI", "KR", "BD", "PK", "LK", "GH", "KE", "NG", "TZ", "UG", "AG", "AM", "BS", "BB", "BZ", "BT", "BW", "BF", "CV", "CW", "DM", "FJ", "GM", "GE", "GD", "GW", "GY", "HT", "JM", "KI", "LS", "LR", "MW", "MV", "ML", "MH", "FM", "NA", "NR", "NE", "PW", "PG", "WS", "SM", "ST", "SN", "SC", "SL", "SB", "KN", "LC", "VC", "SR", "TL", "TO", "TT", "TV", "VU", "AZ", "BN", "BI", "KH", "CM", "TD", "KM", "GQ", "SZ", "GA", "GN", "KG", "LA", "MO", "MR", "MN", "NP", "RW", "TG", "UZ", "ZW", "BJ", "MG", "MU", "MZ", "AO", "CI", "DJ", "ZM", "CD", "CG", "IQ", "LY", "TJ", "VE", "ET", "XK"], "external_urls": {"spotify": "https://open.spotify.com/album/1fnJ7k0bllNfL1kVdNVW1A"}, "href": "https://api.spotify.com/v1/albums/1fnJ7k0bllNfL1kVdNVW1A", "id": "1fnJ7k0bllNfL1kVdNVW1A", "images": [{"height": 640, "url": "https://i.scdn.co/image/ab67616d0000b273fa747621a53c8e2cc436dee0", "width": 640}, {"height": 300, "url": "https://i.scdn.co/image/ab67616d00001e02fa747621a53c8e2cc436dee0", "width": 300}, {"height": 64, "url": "https://i.scdn.co/image/ab67616d00004851fa747621a53c8e2cc436dee0", "width": 64}], "name": "Midnights (The Til Dawn Edition)", "release_date": "2023-05-26", "release_date_precision": "day", "total_tracks": 23, "type": "album", "uri": "spotify:album:1fnJ7k0bllNfL1kVdNVW1A"}, {"album_group": "album", "album_type": "album", "artists": [{"external_urls": {"spotify": "https://open.spotify.com/artist/06HL4z0CvFAxyc27GXpf02"}, "href": "https://api.spotify.com/v1/artists/06HL4z0CvFAxyc27GXpf02", "id": "06HL4z0CvFAxyc27GXpf02", "name": "Taylor Swift", "type": "artist", "uri": "spotify:artist:06HL4z0CvFAxyc27GXpf02"}], "available_markets": ["AR", "AU", "AT", "BE", "BO", "BR", "BG", "CA", "CL", "CO", "CR", "CY", "CZ", "DK", "DO", "DE", "EC", "EE", "SV", "FI", "FR", "GR", "GT", "HN", "HK", "HU", "IS", "IE", "IT", "LV", "LT", "LU", "MY", "MT", "MX", "NL", "NZ", "NI", "NO", "PA", "PY", "PE", "PH", "PL", "PT", "SG", "SK", "ES", "SE", "CH", "TW", "TR", "UY", "US", "GB", "AD", "LI", "MC", "ID", "JP", "TH", "VN", "RO", "IL", "ZA", "SA", "AE", "BH", "QA", "OM", "KW", "EG", "MA", "DZ", "TN", "LB", "JO", "PS", "IN", "KZ", "MD", "UA", "AL", "BA", "HR", "ME", "MK", "RS", "SI", "KR", "BD", "PK", "LK", "GH", "KE", "NG", "TZ", "UG", "AG", "AM", "BS", "BB", "BZ", "BT", "BW", "BF", "CV", "CW", "DM", "FJ", "GM", "GE", "GD", "GW", "GY", "HT", "JM", "KI", "LS", "LR", "MW", "MV", "ML", "MH", "FM", "NA", "NR", "NE", "PW", "PG", "WS", "SM", "ST", "SN", "SC", "SL", "SB", "KN", "LC", "VC", "SR", "TL", "TO", "TT", "TV", "VU", "AZ", "BN", "BI", "KH", "CM", "TD", "KM", "GQ", "SZ", "GA", "GN", "KG", "LA", "MO", "MR", "MN", "NP", "RW", "TG", "UZ", "ZW", "BJ", "MG", "MU", "MZ", "AO", "CI", "DJ", "ZM", "CD", "CG", "IQ", "LY", "TJ", "VE", "ET", "XK"], "external_urls": {"spotify": "https://open.spotify.com/album/3lS1y25WAhcqJDATJK70Mq"}, "href": "https://api.spotify.com/v1/albums/3lS1y25WAhcqJDATJK70Mq", "id": "3lS1y25WAhcqJDATJK70Mq", "images": [{"height": 640, "url": "https://i.scdn.co/image/ab67616d0000b273e0b60c608586d88252b8fbc0", "width": 640}, {"height": 300, "url": "https://i.scdn.co/image/ab67616d00001e02e0b60c608586d88252b8fbc0", "width": 300}, {"height": 64, "url": "https://i.scdn.co/image/ab67616d00004851e0b60c608586d88252b8fbc0", "width": 64}], "name": "Midnights (3am Edition)", "release_date": "2022-10-22", "release_date_precision": "day", "total_tracks": 20, "type": "album", "uri": "spotify:album:3lS1y25WAhcqJDATJK70Mq"}], "limit": 5, "next": "https://api.spotify.com/v1/artists/06HL4z0CvFAxyc27GXpf02/albums?include_groups=album&offset=5&limit=5", "offset": 0, "previous": null, "total": 27}