{"href": "https://api.spotify.com/v1/artists/7pXu47GoqSYRajmBCjxdD6/albums?include_groups=album&offset=0&limit=5", "items": [{"album_group": "album", "album_type": "album", "artists": [{"external_urls": {"spotify": "https://open.spotify.com/artist/7pXu47GoqSYRajmBCjxdD6"}, "href": "https://api.spotify.com/v1/artists/7pXu47GoqSYRajmBCjxdD6", "id": "7pXu47GoqSYRajmBCjxdD6", "name": "Vulfpeck", "type": "artist", "uri": "spotify:artist:7pXu47GoqSYRajmBCjxdD6"}], "available_markets": ["AR", "AU", "AT", "BE", "BO", "BR", "BG", "CA", "CL", "CO", "CR", "CY", "CZ", "DK", "DO", "DE", "EC", "EE", "SV", "FI", "FR", "GR", "GT", "HN", "HK", "HU", "IS", "IE", "IT", "LV", "LT", "LU", "MY", "MT", "MX", "NL", "NZ", "NI", "NO", "PA", "PY", "PE", "PH", "PL", "PT", "SG", "SK", "ES", "SE", "CH", "TW", "TR", "UY", "US", "GB", "AD", "LI", "MC", "ID", "JP", "TH", "VN", "RO", "IL", "ZA", "SA", "AE", "BH", "QA", "OM", "KW", "EG", "MA", "DZ", "TN", "LB", "JO", "PS", "IN", "BY", "KZ", "MD", "UA", "AL", "BA", "HR", "ME", "MK", "RS", "SI", "KR", "BD", "PK", "LK", "GH", "KE", "NG", "TZ", "UG", "AG", "AM", "BS", "BB", "BZ", "BT", "BW", "BF", "CV", "CW", "DM", "FJ", "GM", "GE", "GD", "GW", "GY", "HT", "JM", "KI", "LS", "LR", "MW", "MV", "ML", "MH", "FM", "NA", "NR", "NE", "PW", "PG", "WS", "SM", "ST", "SN", "SC", "SL", "SB", "KN", "LC", "VC", "SR", "TL", "TO", "TT", "TV", "VU", "AZ", "BN", "BI", "KH", "CM", "TD", "KM", "GQ", "SZ", "GA", "GN", "KG", "LA", "MO", "MR", "MN", "NP", "RW", "TG", "UZ", "ZW", "BJ", "MG", "MU", "MZ", "AO", "CI", "DJ", "ZM", "CD", "CG", "IQ", "LY", "TJ", "VE", "ET", "XK"], "external_urls": {"spotify": "https://open.spotify.com/album/3TcGOgTAOLfRN69R74hxmI"}, "href": "https://api.spotify.com/v1/albums/3TcGOgTAOLfRN69R74hxmI", "id": "3TcGOgTAOLfRN69R74hxmI", "images": [{"height": 640, "url": "https://i.scdn.co/image/ab67616d0000b27312dd7dcec66b6d230a719a5e", "width": 640}, {"height": 300, "url": "https://i.scdn.co/image/ab67616d00001e0212dd7dcec66b6d230a719a5e", "width": 300}, {"height": 64, "url": "https://i.scdn.co/image/ab67616d0000485112dd7dcec66b6d230a719a5e", "width": 64}], "name": "Schvitz", "release_date": "2022-12-30", "release_date_precision": "day", "total_tracks": 10, "type": "album", "uri": "spotify:album:3TcGOgTAOLfRN69R74hxmI"}, {"album_group": "album", "album_type": "album", "artists": [{"external_urls": {"spotify": "https://open.spotify.com/artist/7pXu47GoqSYRajmBCjxdD6"}, "href": "https://api.spotify.com/v1/artists/7pXu47GoqSYRajmBCjxdD6", "id": "7pXu47GoqSYRajmBCjxdD6", "name": "Vulfpeck", "type": "artist", "uri": "spotify:artist:7pXu47GoqSYRajmBCjxdD6"}], "available_markets": ["AR", "AU", "AT", "BE", "BO", "BR", "BG", "CA", "CL", "CO", "CR", "CY", "CZ", "DK", "DO", "DE", "EC", "EE", "SV", "FI", "FR", "GR", "GT", "HN", "HK", "HU", "IS", "IE", "IT", "LV", "LT", "LU", "MY", "MT", "MX", "NL", "NZ", "NI", "NO", "PA", "PY", "PE", "PH", "PL", "PT", "SG", "SK", "ES", "SE", "CH", "TW", "TR", "UY", "US", "GB", "AD", "LI", "MC", "ID", "JP", "TH", "VN", "RO", "IL", "ZA", "SA", "AE", "BH", "QA", "OM", "KW", "EG", "MA", "DZ", "TN", "LB", "JO", "PS", "IN", "BY", "KZ", "MD", "UA", "AL", "BA", "HR", "ME", "MK", "RS", "SI", "KR", "BD", "PK", "LK", "GH", "KE", "NG", "TZ", "UG", "AG", "AM", "BS", "BB", "BZ", "BT", "BW", "BF", "CV", "CW", "DM", "FJ", "GM", "GE", "GD", "GW", "GY", "HT", "JM", "KI", "LS", "LR", "MW", "MV", "ML", "MH", "FM", "NA", "NR", "NE", "PW", "PG", "WS", "SM", "ST", "SN", "SC", "SL", "SB", "KN", "LC", "VC", "SR", "TL", "TO", "TT", "TV", "VU", "AZ", "BN", "BI", "KH", "CM", "TD", "KM", "GQ", "SZ", "GA", "GN", "KG", "LA", "MO", "MR", "MN", "NP", "RW", "TG", "UZ", "ZW", "BJ", "MG", "MU", "MZ", "AO", "CI", "DJ", "ZM", "CD", "CG", "IQ", "LY", "TJ", "VE", "ET", "XK"], "external_urls": {"spotify": "https://open.spotify.com/album/0woDg8EWf32yL9I5bhrGSD"}, "href": "https://api.spotify.com/v1/albums/0woDg8EWf32yL9I5bhrGSD", "id": "0woDg8EWf32yL9I5bhrGSD", "images": [{"height": 640, "url": "https://i.scdn.co/image/ab67616d0000b273443916bba6c5758dc8c977dc", "width": 640}, {"height": 300, "url": "https://i.scdn.co/image/ab67616d00001e02443916bba6c5758dc8c977dc", "width": 300}, {"height": 64, "url": "https://i.scdn.co/image/ab67616d00004851443916bba6c5758dc8c977dc", "width": 64}], "name": "The Joy of Music, The Job of Real Estate", "release_date": "2020-10-23", "release_date_precision": "day", "total_tracks": 10, "type": "album", "uri": "spotify:album:0woDg8EWf32yL9I5bhrGSD"}, {"album_group": "album", "album_type": "album", "artists": [{"external_urls": {"spotify": "https://open.spotify.com/artist/7pXu47GoqSYRajmBCjxdD6"}, "href": "https://api.spotify.com/v1/artists/7pXu47GoqSYRajmBCjxdD6", "id": "7pXu47GoqSYRajmBCjxdD6", "name": "Vulfpeck", "type": "artist", "uri": "spotify:artist:7pXu47GoqSYRajmBCjxdD6"}], "available_markets": ["AR", "AU", "AT", "BE", "BO", "BR", "BG", "CA", "CL", "CO", "CR", "CY", "CZ", "DK", "DO", "DE", "EC", "EE", "SV", "FI", "FR", "GR", "GT", "HN", "HK", "HU", "IS", "IE", "IT", "LV", "LT", "LU", "MY", "MT", "MX", "NL", "NZ", "NI", "NO", "PA", "PY", "PE", "PH", "PL", "PT", "SG", "SK", "ES", "SE", "CH", "TW", "TR", "UY", "US", "GB", "AD", "LI", "MC", "ID", "JP", "TH", "VN", "RO", "IL", "ZA", "SA", "AE", "BH", "QA", "OM", "KW", "EG", "MA", "DZ", "TN", "LB", "JO", "PS", "IN", "BY", "KZ", "MD", "UA", "AL", "BA", "HR", "ME", "MK", "RS", "SI", "KR", "BD", "PK", "LK", "GH", "KE", "NG", "TZ", "UG", "AG", "AM", "BS", "BB", "BZ", "BT", "BW", "BF", "CV", "CW", "DM", "FJ", "GM", "GE", "GD", "GW", "GY", "HT", "JM", "KI", "LS", "LR", "MW", "MV", "ML", "MH", "FM", "NA", "NR", "NE", "PW", "PG", "WS", "SM", "ST", "SN", "SC", "SL", "SB", "KN", "LC", "VC", "SR", "TL", "TO", "TT", "TV", "VU", "AZ", "BN", "BI", "KH", "CM", "TD", "KM", "GQ", "SZ", "GA", "GN", "KG", "LA", "MO", "MR", "MN", "NP", "RW", "TG", "UZ", "ZW", "BJ", "MG", "MU", "MZ", "AO", "CI", "DJ", "ZM", "CD", "CG", "IQ", "LY", "TJ", "VE", "ET", "XK"], "external_urls": {"spotify": "https://open.spotify.com/album/5KmXBjpN0wHutYBoDJBxmM"}, "href": "https://api.spotify.com/v1/albums/5KmXBjpN0wHutYBoDJBxmM", "id": "5KmXBjpN0wHutYBoDJBxmM", "images": [{"height": 640, "url": "https://i.scdn.co/image/ab67616d0000b273670e99b5ad2dcd60b7d05dc0", "width": 640}, {"height": 300, "url": "https://i.scdn.co/image/ab67616d00001e02670e99b5ad2dcd60b7d05dc0", "width": 300}, {"height": 64, "url": "https://i.scdn.co/image/ab67616d00004851670e99b5ad2dcd60b7d05dc0", "width": 64}], "name": "Live at Madison Square Garden", "release_date": "2019-12-10", "release_date_precision": "day", "total_tracks": 19, "type": "album", "uri": "spotify:album:5KmXBjpN0wHutYBoDJBxmM"}, {"album_group": "album", "album_type": "album", "artists": [{"external_urls": {"spotify": "https://open.spotify.com/artist/7pXu47GoqSYRajmBCjxdD6"}, "href": "https://api.spotify.com/v1/artists/7pXu47GoqSYRajmBCjxdD6", "id": "7pXu47GoqSYRajmBCjxdD6", "name": "Vulfpeck", "type": "artist", "uri": "spotify:artist:7pXu47GoqSYRajmBCjxdD6"}], "available_markets": ["AR", "AU", "AT", "BE", "BO", "BR", "BG", "CA", "CL", "CO", "CR", "CY", "CZ", "DK", "DO", "DE", "EC", "EE", "SV", "FI", "FR", "GR", "GT", "HN", "HK", "HU", "IS", "IE", "IT", "LV", "LT", "LU", "MY", "MT", "MX", "NL", "NZ", "NI", "NO", "PA", "PY", "PE", "PH", "PL", "PT", "SG", "SK", "ES", "SE", "CH", "TW", "TR", "UY", "US", "GB", "AD", "LI", "MC", "ID", "JP", "TH", "VN", "RO", "IL", "ZA", "SA", "AE", "BH", "QA", "OM", "KW", "EG", "MA", "DZ", "TN", "LB", "JO", "PS", "IN", "BY", "KZ", "MD", "UA", "AL", "BA", "HR", "ME", "MK", "RS", "SI", "KR", "BD", "PK", "LK", "GH", "KE", "NG", "TZ", "UG", "AG", "AM", "BS", "BB", "BZ", "BT", "BW", "BF", "CV", "CW", "DM", "FJ", "GM", "GE", "GD", "GW", "GY", "HT", "JM", "KI", "LS", "LR", "MW", "MV", "ML", "MH", "FM", "NA", "NR", "NE", "PW", "PG", "WS", "SM", "ST", "SN", "SC", "SL", "SB", "KN", "LC", "VC", "SR", "TL", "TO", "TT", "TV", "VU", "AZ", "BN", "BI", "KH", "CM", "TD", "KM", "GQ", "SZ", "GA", "GN", "KG", "LA", "MO", "MR", "MN", "NP", "RW", "TG", "UZ", "ZW", "BJ", "MG", "MU", "MZ", "AO", "CI", "DJ", "ZM", "CD", "CG", "IQ", "LY", "TJ", "VE", "ET", "XK"], "external_urls": {"spotify": "https://open.spotify.com/album/2cZ4rjMOn8zz1ToKSBQVWa"}, "href": "https://api.spotify.com/v1/albums/2cZ4rjMOn8zz1ToKSBQVWa", "id": "2cZ4rjMOn8zz1ToKSBQVWa", "images": [{"height": 640, "url": "https://i.scdn.co/image/ab67616d0000b273e2af63e82adb0206f1296834", "width": 640}, {"height": 300, "url": "https://i.scdn.co/image/ab67616d00001e02e2af63e82adb0206f1296834", "width": 300}, {"height": 64, "url": "https://i.scdn.co/image/ab67616d00004851e2af63e82adb0206f1296834", "width": 64}], "name": "Hill Climber", "release_date": "2018-12-07", "release_date_precision": "day", "total_tracks": 10, "type": "album", "uri": "spotify:album:2cZ4rjMOn8zz1ToKSBQVWa"}, {"album_group": "album", "album_type": "album", "artists": [{"external_urls": {"spotify": "https://open.spotify.com/artist/7pXu47GoqSYRajmBCjxdD6"}, "href": "https://api.spotify.com/v1/artists/7pXu47GoqSYRajmBCjxdD6", "id": "7pXu47GoqSYRajmBCjxdD6", "name": "Vulfpeck", "type": "artist", "uri": "spotify:artist:7pXu47GoqSYRajmBCjxdD6"}], "available_markets": ["AR", "AU", "AT", "BE", "BO", "BR", "BG", "CA", "CL", "CO", "CR", "CY", "CZ", "DK", "DO", "DE", "EC", "EE", "SV", "FI", "FR", "GR", "GT", "HN", "HK", "HU", "IS", "IE", "IT", "LV", "LT", "LU", "MY", "MT", "MX", "NL", "NZ", "NI", "NO", "PA", "PY", "PE", "PH", "PL", "PT", "SG", "SK", "ES", "SE", "CH", "TW", "TR", "UY", "US", "GB", "AD", "LI", "MC", "ID", "JP", "TH", "VN", "RO", "IL", "ZA", "SA", "AE", "BH", "QA", "OM", "KW", "EG", "MA", "DZ", "TN", "LB", "JO", "PS", "IN", "BY", "KZ", "MD", "UA", "AL", "BA", "HR", "ME", "MK", "RS", "SI", "KR", "BD", "PK", "LK", "GH", "KE", "NG", "TZ", "UG", "AG", "AM", "BS", "BB", "BZ", "BT", "BW", "BF", "CV", "CW", "DM", "FJ", "GM", "GE", "GD", "GW", "GY", "HT", "JM", "KI", "LS", "LR", "MW", "MV", "ML", "MH", "FM", "NA", "NR", "NE", "PW", "PG", "WS", "SM", "ST", "SN", "SC", "SL", "SB", "KN", "LC", "VC", "SR", "TL", "TO", "TT", "TV", "VU", "AZ", "BN", "BI", "KH", "CM", "TD", "KM", "GQ", "SZ", "GA", "GN", "KG", "LA", "MO", "MR", "MN", "NP", "RW", "TG", "UZ", "ZW", "BJ", "MG", "MU", "MZ", "AO", "CI", "DJ", "ZM", "CD", "CG", "IQ", "LY", "TJ", "VE", "ET", "XK"], "external_urls": {"spotify": "https://open.spotify.com/album/631tfYWQsACU5Kmk8dpqli"}, "href": "https://api.spotify.com/v1/albums/631tfYWQsACU5Kmk8dpqli", "id": "631tfYWQsACU5Kmk8dpqli", "images": [{"height": 640, "url": "https://i.scdn.co/image/ab67616d0000b2733e7b79c0267c3564205a8b4c", "width": 640}, {"height": 300, "url": "https://i.scdn.co/image/ab67616d00001e023e7b79c0267c3564205a8b4c", "width": 300}, {"height": 64, "url": "https://i.scdn.co/image/ab67616d000048513e7b79c0267c3564205a8b4c", "width": 64}], "name": "Mr Finish Line", "release_date": "2017-11-07", "release_date_precision": "day", "total_tracks": 10, "type": "album", "uri": "spotify:album:631tfYWQsACU5Kmk8dpqli"}], "limit": 5, "next": "https://api.spotify.com/v1/artists/7pXu47GoqSYRajmBCjxdD6/albums?include_groups=album&offset=5&limit=5", "offset": 0, "previous": null, "total": 7}